﻿# Tiled2Unity generated file. Do not modify by hand.
# Wavefront file for 'ruang-raja_mesh_0002.obj'

# Vertices (Count = 720)
v -7 -3 0
v -8 -3 0
v -8 -2 0
v -7 -2 0
v -8 -3 0
v -9 -3 0
v -9 -2 0
v -8 -2 0
v -9 -3 0
v -10 -3 0
v -10 -2 0
v -9 -2 0
v -10 -3 0
v -11 -3 0
v -11 -2 0
v -10 -2 0
v -11 -3 0
v -12 -3 0
v -12 -2 0
v -11 -2 0
v -12 -3 0
v -13 -3 0
v -13 -2 0
v -12 -2 0
v -7 -4 0
v -8 -4 0
v -8 -3 0
v -7 -3 0
v -8 -4 0
v -9 -4 0
v -9 -3 0
v -8 -3 0
v -9 -4 0
v -10 -4 0
v -10 -3 0
v -9 -3 0
v -10 -4 0
v -11 -4 0
v -11 -3 0
v -10 -3 0
v -11 -4 0
v -12 -4 0
v -12 -3 0
v -11 -3 0
v -12 -4 0
v -13 -4 0
v -13 -3 0
v -12 -3 0
v -7 -5 0
v -8 -5 0
v -8 -4 0
v -7 -4 0
v -8 -5 0
v -9 -5 0
v -9 -4 0
v -8 -4 0
v -9 -5 0
v -10 -5 0
v -10 -4 0
v -9 -4 0
v -10 -5 0
v -11 -5 0
v -11 -4 0
v -10 -4 0
v -11 -5 0
v -12 -5 0
v -12 -4 0
v -11 -4 0
v -12 -5 0
v -13 -5 0
v -13 -4 0
v -12 -4 0
v -7 -6 0
v -8 -6 0
v -8 -5 0
v -7 -5 0
v -8 -6 0
v -9 -6 0
v -9 -5 0
v -8 -5 0
v -9 -6 0
v -10 -6 0
v -10 -5 0
v -9 -5 0
v -10 -6 0
v -11 -6 0
v -11 -5 0
v -10 -5 0
v -11 -6 0
v -12 -6 0
v -12 -5 0
v -11 -5 0
v -12 -6 0
v -13 -6 0
v -13 -5 0
v -12 -5 0
v -7 -7 0
v -8 -7 0
v -8 -6 0
v -7 -6 0
v -8 -7 0
v -9 -7 0
v -9 -6 0
v -8 -6 0
v -9 -7 0
v -10 -7 0
v -10 -6 0
v -9 -6 0
v -10 -7 0
v -11 -7 0
v -11 -6 0
v -10 -6 0
v -11 -7 0
v -12 -7 0
v -12 -6 0
v -11 -6 0
v -12 -7 0
v -13 -7 0
v -13 -6 0
v -12 -6 0
v -7 -8 0
v -8 -8 0
v -8 -7 0
v -7 -7 0
v -8 -8 0
v -9 -8 0
v -9 -7 0
v -8 -7 0
v -9 -8 0
v -10 -8 0
v -10 -7 0
v -9 -7 0
v -10 -8 0
v -11 -8 0
v -11 -7 0
v -10 -7 0
v -11 -8 0
v -12 -8 0
v -12 -7 0
v -11 -7 0
v -12 -8 0
v -13 -8 0
v -13 -7 0
v -12 -7 0
v -1 -9 0
v -2 -9 0
v -2 -8 0
v -1 -8 0
v -2 -9 0
v -3 -9 0
v -3 -8 0
v -2 -8 0
v -3 -9 0
v -4 -9 0
v -4 -8 0
v -3 -8 0
v -4 -9 0
v -5 -9 0
v -5 -8 0
v -4 -8 0
v -5 -9 0
v -6 -9 0
v -6 -8 0
v -5 -8 0
v -6 -9 0
v -7 -9 0
v -7 -8 0
v -6 -8 0
v -7 -9 0
v -8 -9 0
v -8 -8 0
v -7 -8 0
v -8 -9 0
v -9 -9 0
v -9 -8 0
v -8 -8 0
v -9 -9 0
v -10 -9 0
v -10 -8 0
v -9 -8 0
v -10 -9 0
v -11 -9 0
v -11 -8 0
v -10 -8 0
v -11 -9 0
v -12 -9 0
v -12 -8 0
v -11 -8 0
v -12 -9 0
v -13 -9 0
v -13 -8 0
v -12 -8 0
v -13 -9 0
v -14 -9 0
v -14 -8 0
v -13 -8 0
v -14 -9 0
v -15 -9 0
v -15 -8 0
v -14 -8 0
v -15 -9 0
v -16 -9 0
v -16 -8 0
v -15 -8 0
v -16 -9 0
v -17 -9 0
v -17 -8 0
v -16 -8 0
v -17 -9 0
v -18 -9 0
v -18 -8 0
v -17 -8 0
v -18 -9 0
v -19 -9 0
v -19 -8 0
v -18 -8 0
v -1 -10 0
v -2 -10 0
v -2 -9 0
v -1 -9 0
v -2 -10 0
v -3 -10 0
v -3 -9 0
v -2 -9 0
v -3 -10 0
v -4 -10 0
v -4 -9 0
v -3 -9 0
v -4 -10 0
v -5 -10 0
v -5 -9 0
v -4 -9 0
v -5 -10 0
v -6 -10 0
v -6 -9 0
v -5 -9 0
v -6 -10 0
v -7 -10 0
v -7 -9 0
v -6 -9 0
v -7 -10 0
v -8 -10 0
v -8 -9 0
v -7 -9 0
v -8 -10 0
v -9 -10 0
v -9 -9 0
v -8 -9 0
v -9 -10 0
v -10 -10 0
v -10 -9 0
v -9 -9 0
v -10 -10 0
v -11 -10 0
v -11 -9 0
v -10 -9 0
v -11 -10 0
v -12 -10 0
v -12 -9 0
v -11 -9 0
v -12 -10 0
v -13 -10 0
v -13 -9 0
v -12 -9 0
v -13 -10 0
v -14 -10 0
v -14 -9 0
v -13 -9 0
v -14 -10 0
v -15 -10 0
v -15 -9 0
v -14 -9 0
v -15 -10 0
v -16 -10 0
v -16 -9 0
v -15 -9 0
v -16 -10 0
v -17 -10 0
v -17 -9 0
v -16 -9 0
v -17 -10 0
v -18 -10 0
v -18 -9 0
v -17 -9 0
v -18 -10 0
v -19 -10 0
v -19 -9 0
v -18 -9 0
v -1 -11 0
v -2 -11 0
v -2 -10 0
v -1 -10 0
v -2 -11 0
v -3 -11 0
v -3 -10 0
v -2 -10 0
v -3 -11 0
v -4 -11 0
v -4 -10 0
v -3 -10 0
v -4 -11 0
v -5 -11 0
v -5 -10 0
v -4 -10 0
v -5 -11 0
v -6 -11 0
v -6 -10 0
v -5 -10 0
v -6 -11 0
v -7 -11 0
v -7 -10 0
v -6 -10 0
v -7 -11 0
v -8 -11 0
v -8 -10 0
v -7 -10 0
v -8 -11 0
v -9 -11 0
v -9 -10 0
v -8 -10 0
v -9 -11 0
v -10 -11 0
v -10 -10 0
v -9 -10 0
v -10 -11 0
v -11 -11 0
v -11 -10 0
v -10 -10 0
v -11 -11 0
v -12 -11 0
v -12 -10 0
v -11 -10 0
v -12 -11 0
v -13 -11 0
v -13 -10 0
v -12 -10 0
v -13 -11 0
v -14 -11 0
v -14 -10 0
v -13 -10 0
v -14 -11 0
v -15 -11 0
v -15 -10 0
v -14 -10 0
v -15 -11 0
v -16 -11 0
v -16 -10 0
v -15 -10 0
v -16 -11 0
v -17 -11 0
v -17 -10 0
v -16 -10 0
v -17 -11 0
v -18 -11 0
v -18 -10 0
v -17 -10 0
v -18 -11 0
v -19 -11 0
v -19 -10 0
v -18 -10 0
v -1 -12 0
v -2 -12 0
v -2 -11 0
v -1 -11 0
v -2 -12 0
v -3 -12 0
v -3 -11 0
v -2 -11 0
v -3 -12 0
v -4 -12 0
v -4 -11 0
v -3 -11 0
v -4 -12 0
v -5 -12 0
v -5 -11 0
v -4 -11 0
v -5 -12 0
v -6 -12 0
v -6 -11 0
v -5 -11 0
v -6 -12 0
v -7 -12 0
v -7 -11 0
v -6 -11 0
v -7 -12 0
v -8 -12 0
v -8 -11 0
v -7 -11 0
v -8 -12 0
v -9 -12 0
v -9 -11 0
v -8 -11 0
v -9 -12 0
v -10 -12 0
v -10 -11 0
v -9 -11 0
v -10 -12 0
v -11 -12 0
v -11 -11 0
v -10 -11 0
v -11 -12 0
v -12 -12 0
v -12 -11 0
v -11 -11 0
v -12 -12 0
v -13 -12 0
v -13 -11 0
v -12 -11 0
v -13 -12 0
v -14 -12 0
v -14 -11 0
v -13 -11 0
v -14 -12 0
v -15 -12 0
v -15 -11 0
v -14 -11 0
v -15 -12 0
v -16 -12 0
v -16 -11 0
v -15 -11 0
v -16 -12 0
v -17 -12 0
v -17 -11 0
v -16 -11 0
v -17 -12 0
v -18 -12 0
v -18 -11 0
v -17 -11 0
v -18 -12 0
v -19 -12 0
v -19 -11 0
v -18 -11 0
v -1 -13 0
v -2 -13 0
v -2 -12 0
v -1 -12 0
v -2 -13 0
v -3 -13 0
v -3 -12 0
v -2 -12 0
v -3 -13 0
v -4 -13 0
v -4 -12 0
v -3 -12 0
v -4 -13 0
v -5 -13 0
v -5 -12 0
v -4 -12 0
v -5 -13 0
v -6 -13 0
v -6 -12 0
v -5 -12 0
v -6 -13 0
v -7 -13 0
v -7 -12 0
v -6 -12 0
v -7 -13 0
v -8 -13 0
v -8 -12 0
v -7 -12 0
v -8 -13 0
v -9 -13 0
v -9 -12 0
v -8 -12 0
v -9 -13 0
v -10 -13 0
v -10 -12 0
v -9 -12 0
v -10 -13 0
v -11 -13 0
v -11 -12 0
v -10 -12 0
v -11 -13 0
v -12 -13 0
v -12 -12 0
v -11 -12 0
v -12 -13 0
v -13 -13 0
v -13 -12 0
v -12 -12 0
v -13 -13 0
v -14 -13 0
v -14 -12 0
v -13 -12 0
v -14 -13 0
v -15 -13 0
v -15 -12 0
v -14 -12 0
v -15 -13 0
v -16 -13 0
v -16 -12 0
v -15 -12 0
v -16 -13 0
v -17 -13 0
v -17 -12 0
v -16 -12 0
v -17 -13 0
v -18 -13 0
v -18 -12 0
v -17 -12 0
v -18 -13 0
v -19 -13 0
v -19 -12 0
v -18 -12 0
v -1 -14 0
v -2 -14 0
v -2 -13 0
v -1 -13 0
v -2 -14 0
v -3 -14 0
v -3 -13 0
v -2 -13 0
v -3 -14 0
v -4 -14 0
v -4 -13 0
v -3 -13 0
v -4 -14 0
v -5 -14 0
v -5 -13 0
v -4 -13 0
v -5 -14 0
v -6 -14 0
v -6 -13 0
v -5 -13 0
v -6 -14 0
v -7 -14 0
v -7 -13 0
v -6 -13 0
v -7 -14 0
v -8 -14 0
v -8 -13 0
v -7 -13 0
v -8 -14 0
v -9 -14 0
v -9 -13 0
v -8 -13 0
v -9 -14 0
v -10 -14 0
v -10 -13 0
v -9 -13 0
v -10 -14 0
v -11 -14 0
v -11 -13 0
v -10 -13 0
v -11 -14 0
v -12 -14 0
v -12 -13 0
v -11 -13 0
v -12 -14 0
v -13 -14 0
v -13 -13 0
v -12 -13 0
v -13 -14 0
v -14 -14 0
v -14 -13 0
v -13 -13 0
v -14 -14 0
v -15 -14 0
v -15 -13 0
v -14 -13 0
v -15 -14 0
v -16 -14 0
v -16 -13 0
v -15 -13 0
v -16 -14 0
v -17 -14 0
v -17 -13 0
v -16 -13 0
v -17 -14 0
v -18 -14 0
v -18 -13 0
v -17 -13 0
v -18 -14 0
v -19 -14 0
v -19 -13 0
v -18 -13 0
v -7 -15 0
v -8 -15 0
v -8 -14 0
v -7 -14 0
v -8 -15 0
v -9 -15 0
v -9 -14 0
v -8 -14 0
v -9 -15 0
v -10 -15 0
v -10 -14 0
v -9 -14 0
v -10 -15 0
v -11 -15 0
v -11 -14 0
v -10 -14 0
v -11 -15 0
v -12 -15 0
v -12 -14 0
v -11 -14 0
v -12 -15 0
v -13 -15 0
v -13 -14 0
v -12 -14 0
v -7 -16 0
v -8 -16 0
v -8 -15 0
v -7 -15 0
v -8 -16 0
v -9 -16 0
v -9 -15 0
v -8 -15 0
v -9 -16 0
v -10 -16 0
v -10 -15 0
v -9 -15 0
v -10 -16 0
v -11 -16 0
v -11 -15 0
v -10 -15 0
v -11 -16 0
v -12 -16 0
v -12 -15 0
v -11 -15 0
v -12 -16 0
v -13 -16 0
v -13 -15 0
v -12 -15 0
v -7 -17 0
v -8 -17 0
v -8 -16 0
v -7 -16 0
v -8 -17 0
v -9 -17 0
v -9 -16 0
v -8 -16 0
v -9 -17 0
v -10 -17 0
v -10 -16 0
v -9 -16 0
v -10 -17 0
v -11 -17 0
v -11 -16 0
v -10 -16 0
v -11 -17 0
v -12 -17 0
v -12 -16 0
v -11 -16 0
v -12 -17 0
v -13 -17 0
v -13 -16 0
v -12 -16 0
v -7 -18 0
v -8 -18 0
v -8 -17 0
v -7 -17 0
v -8 -18 0
v -9 -18 0
v -9 -17 0
v -8 -17 0
v -9 -18 0
v -10 -18 0
v -10 -17 0
v -9 -17 0
v -10 -18 0
v -11 -18 0
v -11 -17 0
v -10 -17 0
v -11 -18 0
v -12 -18 0
v -12 -17 0
v -11 -17 0
v -12 -18 0
v -13 -18 0
v -13 -17 0
v -12 -17 0
v -7 -19 0
v -8 -19 0
v -8 -18 0
v -7 -18 0
v -8 -19 0
v -9 -19 0
v -9 -18 0
v -8 -18 0
v -9 -19 0
v -10 -19 0
v -10 -18 0
v -9 -18 0
v -10 -19 0
v -11 -19 0
v -11 -18 0
v -10 -18 0
v -11 -19 0
v -12 -19 0
v -12 -18 0
v -11 -18 0
v -12 -19 0
v -13 -19 0
v -13 -18 0
v -12 -18 0
v -7 -20 0
v -8 -20 0
v -8 -19 0
v -7 -19 0
v -8 -20 0
v -9 -20 0
v -9 -19 0
v -8 -19 0
v -9 -20 0
v -10 -20 0
v -10 -19 0
v -9 -19 0
v -10 -20 0
v -11 -20 0
v -11 -19 0
v -10 -19 0
v -11 -20 0
v -12 -20 0
v -12 -19 0
v -11 -19 0
v -12 -20 0
v -13 -20 0
v -13 -19 0
v -12 -19 0

# Texture cooridinates (Count = 49)
vt 0.6 0.85
vt 0.65 0.85
vt 0.65 0.9
vt 0.6 0.9
vt 0.7 0.85
vt 0.7 0.9
vt 0.75 0.85
vt 0.75 0.9
vt 0.8 0.85
vt 0.8 0.9
vt 0.85 0.85
vt 0.85 0.9
vt 0.9 0.85
vt 0.9 0.9
vt 0.6 0.8
vt 0.65 0.8
vt 0.7 0.8
vt 0.75 0.8
vt 0.8 0.8
vt 0.85 0.8
vt 0.9 0.8
vt 0.6 0.75
vt 0.65 0.75
vt 0.7 0.75
vt 0.75 0.75
vt 0.8 0.75
vt 0.85 0.75
vt 0.9 0.75
vt 0.6 0.7
vt 0.65 0.7
vt 0.7 0.7
vt 0.75 0.7
vt 0.8 0.7
vt 0.85 0.7
vt 0.9 0.7
vt 0.6 0.65
vt 0.65 0.65
vt 0.7 0.65
vt 0.75 0.65
vt 0.8 0.65
vt 0.85 0.65
vt 0.9 0.65
vt 0.6 0.6
vt 0.65 0.6
vt 0.7 0.6
vt 0.75 0.6
vt 0.8 0.6
vt 0.85 0.6
vt 0.9 0.6

# Normal
vn 0 0 -1

# Mesh description
g ruang-raja_mesh_0002

# Faces
f 1/1/1 2/2/1 3/3/1 4/4/1
f 5/2/1 6/5/1 7/6/1 8/3/1
f 9/5/1 10/7/1 11/8/1 12/6/1
f 13/7/1 14/9/1 15/10/1 16/8/1
f 17/9/1 18/11/1 19/12/1 20/10/1
f 21/11/1 22/13/1 23/14/1 24/12/1
f 25/15/1 26/16/1 27/2/1 28/1/1
f 29/16/1 30/17/1 31/5/1 32/2/1
f 33/17/1 34/18/1 35/7/1 36/5/1
f 37/18/1 38/19/1 39/9/1 40/7/1
f 41/19/1 42/20/1 43/11/1 44/9/1
f 45/20/1 46/21/1 47/13/1 48/11/1
f 49/22/1 50/23/1 51/16/1 52/15/1
f 53/23/1 54/24/1 55/17/1 56/16/1
f 57/24/1 58/25/1 59/18/1 60/17/1
f 61/25/1 62/26/1 63/19/1 64/18/1
f 65/26/1 66/27/1 67/20/1 68/19/1
f 69/27/1 70/28/1 71/21/1 72/20/1
f 73/29/1 74/30/1 75/23/1 76/22/1
f 77/30/1 78/31/1 79/24/1 80/23/1
f 81/31/1 82/32/1 83/25/1 84/24/1
f 85/32/1 86/33/1 87/26/1 88/25/1
f 89/33/1 90/34/1 91/27/1 92/26/1
f 93/34/1 94/35/1 95/28/1 96/27/1
f 97/36/1 98/37/1 99/30/1 100/29/1
f 101/37/1 102/38/1 103/31/1 104/30/1
f 105/38/1 106/39/1 107/32/1 108/31/1
f 109/39/1 110/40/1 111/33/1 112/32/1
f 113/40/1 114/41/1 115/34/1 116/33/1
f 117/41/1 118/42/1 119/35/1 120/34/1
f 121/43/1 122/44/1 123/37/1 124/36/1
f 125/44/1 126/45/1 127/38/1 128/37/1
f 129/45/1 130/46/1 131/39/1 132/38/1
f 133/46/1 134/47/1 135/40/1 136/39/1
f 137/47/1 138/48/1 139/41/1 140/40/1
f 141/48/1 142/49/1 143/42/1 144/41/1
f 145/1/1 146/2/1 147/3/1 148/4/1
f 149/2/1 150/5/1 151/6/1 152/3/1
f 153/5/1 154/7/1 155/8/1 156/6/1
f 157/7/1 158/9/1 159/10/1 160/8/1
f 161/9/1 162/11/1 163/12/1 164/10/1
f 165/11/1 166/13/1 167/14/1 168/12/1
f 169/1/1 170/2/1 171/3/1 172/4/1
f 173/2/1 174/5/1 175/6/1 176/3/1
f 177/5/1 178/7/1 179/8/1 180/6/1
f 181/7/1 182/9/1 183/10/1 184/8/1
f 185/9/1 186/11/1 187/12/1 188/10/1
f 189/11/1 190/13/1 191/14/1 192/12/1
f 193/1/1 194/2/1 195/3/1 196/4/1
f 197/2/1 198/5/1 199/6/1 200/3/1
f 201/5/1 202/7/1 203/8/1 204/6/1
f 205/7/1 206/9/1 207/10/1 208/8/1
f 209/9/1 210/11/1 211/12/1 212/10/1
f 213/11/1 214/13/1 215/14/1 216/12/1
f 217/15/1 218/16/1 219/2/1 220/1/1
f 221/16/1 222/17/1 223/5/1 224/2/1
f 225/17/1 226/18/1 227/7/1 228/5/1
f 229/18/1 230/19/1 231/9/1 232/7/1
f 233/19/1 234/20/1 235/11/1 236/9/1
f 237/20/1 238/21/1 239/13/1 240/11/1
f 241/15/1 242/16/1 243/2/1 244/1/1
f 245/16/1 246/17/1 247/5/1 248/2/1
f 249/17/1 250/18/1 251/7/1 252/5/1
f 253/18/1 254/19/1 255/9/1 256/7/1
f 257/19/1 258/20/1 259/11/1 260/9/1
f 261/20/1 262/21/1 263/13/1 264/11/1
f 265/15/1 266/16/1 267/2/1 268/1/1
f 269/16/1 270/17/1 271/5/1 272/2/1
f 273/17/1 274/18/1 275/7/1 276/5/1
f 277/18/1 278/19/1 279/9/1 280/7/1
f 281/19/1 282/20/1 283/11/1 284/9/1
f 285/20/1 286/21/1 287/13/1 288/11/1
f 289/22/1 290/23/1 291/16/1 292/15/1
f 293/23/1 294/24/1 295/17/1 296/16/1
f 297/24/1 298/25/1 299/18/1 300/17/1
f 301/25/1 302/26/1 303/19/1 304/18/1
f 305/26/1 306/27/1 307/20/1 308/19/1
f 309/27/1 310/28/1 311/21/1 312/20/1
f 313/22/1 314/23/1 315/16/1 316/15/1
f 317/23/1 318/24/1 319/17/1 320/16/1
f 321/24/1 322/25/1 323/18/1 324/17/1
f 325/25/1 326/26/1 327/19/1 328/18/1
f 329/26/1 330/27/1 331/20/1 332/19/1
f 333/27/1 334/28/1 335/21/1 336/20/1
f 337/22/1 338/23/1 339/16/1 340/15/1
f 341/23/1 342/24/1 343/17/1 344/16/1
f 345/24/1 346/25/1 347/18/1 348/17/1
f 349/25/1 350/26/1 351/19/1 352/18/1
f 353/26/1 354/27/1 355/20/1 356/19/1
f 357/27/1 358/28/1 359/21/1 360/20/1
f 361/29/1 362/30/1 363/23/1 364/22/1
f 365/30/1 366/31/1 367/24/1 368/23/1
f 369/31/1 370/32/1 371/25/1 372/24/1
f 373/32/1 374/33/1 375/26/1 376/25/1
f 377/33/1 378/34/1 379/27/1 380/26/1
f 381/34/1 382/35/1 383/28/1 384/27/1
f 385/29/1 386/30/1 387/23/1 388/22/1
f 389/30/1 390/31/1 391/24/1 392/23/1
f 393/31/1 394/32/1 395/25/1 396/24/1
f 397/32/1 398/33/1 399/26/1 400/25/1
f 401/33/1 402/34/1 403/27/1 404/26/1
f 405/34/1 406/35/1 407/28/1 408/27/1
f 409/29/1 410/30/1 411/23/1 412/22/1
f 413/30/1 414/31/1 415/24/1 416/23/1
f 417/31/1 418/32/1 419/25/1 420/24/1
f 421/32/1 422/33/1 423/26/1 424/25/1
f 425/33/1 426/34/1 427/27/1 428/26/1
f 429/34/1 430/35/1 431/28/1 432/27/1
f 433/36/1 434/37/1 435/30/1 436/29/1
f 437/37/1 438/38/1 439/31/1 440/30/1
f 441/38/1 442/39/1 443/32/1 444/31/1
f 445/39/1 446/40/1 447/33/1 448/32/1
f 449/40/1 450/41/1 451/34/1 452/33/1
f 453/41/1 454/42/1 455/35/1 456/34/1
f 457/36/1 458/37/1 459/30/1 460/29/1
f 461/37/1 462/38/1 463/31/1 464/30/1
f 465/38/1 466/39/1 467/32/1 468/31/1
f 469/39/1 470/40/1 471/33/1 472/32/1
f 473/40/1 474/41/1 475/34/1 476/33/1
f 477/41/1 478/42/1 479/35/1 480/34/1
f 481/36/1 482/37/1 483/30/1 484/29/1
f 485/37/1 486/38/1 487/31/1 488/30/1
f 489/38/1 490/39/1 491/32/1 492/31/1
f 493/39/1 494/40/1 495/33/1 496/32/1
f 497/40/1 498/41/1 499/34/1 500/33/1
f 501/41/1 502/42/1 503/35/1 504/34/1
f 505/43/1 506/44/1 507/37/1 508/36/1
f 509/44/1 510/45/1 511/38/1 512/37/1
f 513/45/1 514/46/1 515/39/1 516/38/1
f 517/46/1 518/47/1 519/40/1 520/39/1
f 521/47/1 522/48/1 523/41/1 524/40/1
f 525/48/1 526/49/1 527/42/1 528/41/1
f 529/43/1 530/44/1 531/37/1 532/36/1
f 533/44/1 534/45/1 535/38/1 536/37/1
f 537/45/1 538/46/1 539/39/1 540/38/1
f 541/46/1 542/47/1 543/40/1 544/39/1
f 545/47/1 546/48/1 547/41/1 548/40/1
f 549/48/1 550/49/1 551/42/1 552/41/1
f 553/43/1 554/44/1 555/37/1 556/36/1
f 557/44/1 558/45/1 559/38/1 560/37/1
f 561/45/1 562/46/1 563/39/1 564/38/1
f 565/46/1 566/47/1 567/40/1 568/39/1
f 569/47/1 570/48/1 571/41/1 572/40/1
f 573/48/1 574/49/1 575/42/1 576/41/1
f 577/1/1 578/2/1 579/3/1 580/4/1
f 581/2/1 582/5/1 583/6/1 584/3/1
f 585/5/1 586/7/1 587/8/1 588/6/1
f 589/7/1 590/9/1 591/10/1 592/8/1
f 593/9/1 594/11/1 595/12/1 596/10/1
f 597/11/1 598/13/1 599/14/1 600/12/1
f 601/15/1 602/16/1 603/2/1 604/1/1
f 605/16/1 606/17/1 607/5/1 608/2/1
f 609/17/1 610/18/1 611/7/1 612/5/1
f 613/18/1 614/19/1 615/9/1 616/7/1
f 617/19/1 618/20/1 619/11/1 620/9/1
f 621/20/1 622/21/1 623/13/1 624/11/1
f 625/22/1 626/23/1 627/16/1 628/15/1
f 629/23/1 630/24/1 631/17/1 632/16/1
f 633/24/1 634/25/1 635/18/1 636/17/1
f 637/25/1 638/26/1 639/19/1 640/18/1
f 641/26/1 642/27/1 643/20/1 644/19/1
f 645/27/1 646/28/1 647/21/1 648/20/1
f 649/29/1 650/30/1 651/23/1 652/22/1
f 653/30/1 654/31/1 655/24/1 656/23/1
f 657/31/1 658/32/1 659/25/1 660/24/1
f 661/32/1 662/33/1 663/26/1 664/25/1
f 665/33/1 666/34/1 667/27/1 668/26/1
f 669/34/1 670/35/1 671/28/1 672/27/1
f 673/36/1 674/37/1 675/30/1 676/29/1
f 677/37/1 678/38/1 679/31/1 680/30/1
f 681/38/1 682/39/1 683/32/1 684/31/1
f 685/39/1 686/40/1 687/33/1 688/32/1
f 689/40/1 690/41/1 691/34/1 692/33/1
f 693/41/1 694/42/1 695/35/1 696/34/1
f 697/43/1 698/44/1 699/37/1 700/36/1
f 701/44/1 702/45/1 703/38/1 704/37/1
f 705/45/1 706/46/1 707/39/1 708/38/1
f 709/46/1 710/47/1 711/40/1 712/39/1
f 713/47/1 714/48/1 715/41/1 716/40/1
f 717/48/1 718/49/1 719/42/1 720/41/1

