﻿# Tiled2Unity generated file. Do not modify by hand.
# Wavefront file for 'Hutan1_mesh_0001.obj'

# Vertices (Count = 2500)
v 0 -1 0
v -1 -1 0
v -1 0 0
v 0 0 0
v -1 -1 0
v -2 -1 0
v -2 0 0
v -1 0 0
v -2 -1 0
v -3 -1 0
v -3 0 0
v -2 0 0
v -3 -1 0
v -4 -1 0
v -4 0 0
v -3 0 0
v -4 -1 0
v -5 -1 0
v -5 0 0
v -4 0 0
v -5 -1 0
v -6 -1 0
v -6 0 0
v -5 0 0
v -6 -1 0
v -7 -1 0
v -7 0 0
v -6 0 0
v -7 -1 0
v -8 -1 0
v -8 0 0
v -7 0 0
v -8 -1 0
v -9 -1 0
v -9 0 0
v -8 0 0
v -9 -1 0
v -10 -1 0
v -10 0 0
v -9 0 0
v -10 -1 0
v -11 -1 0
v -11 0 0
v -10 0 0
v -11 -1 0
v -12 -1 0
v -12 0 0
v -11 0 0
v -12 -1 0
v -13 -1 0
v -13 0 0
v -12 0 0
v -13 -1 0
v -14 -1 0
v -14 0 0
v -13 0 0
v -14 -1 0
v -15 -1 0
v -15 0 0
v -14 0 0
v -15 -1 0
v -16 -1 0
v -16 0 0
v -15 0 0
v -16 -1 0
v -17 -1 0
v -17 0 0
v -16 0 0
v -17 -1 0
v -18 -1 0
v -18 0 0
v -17 0 0
v -18 -1 0
v -19 -1 0
v -19 0 0
v -18 0 0
v -19 -1 0
v -20 -1 0
v -20 0 0
v -19 0 0
v -20 -1 0
v -21 -1 0
v -21 0 0
v -20 0 0
v -21 -1 0
v -22 -1 0
v -22 0 0
v -21 0 0
v -22 -1 0
v -23 -1 0
v -23 0 0
v -22 0 0
v -23 -1 0
v -24 -1 0
v -24 0 0
v -23 0 0
v -24 -1 0
v -25 -1 0
v -25 0 0
v -24 0 0
v 0 -2 0
v -1 -2 0
v -1 -1 0
v 0 -1 0
v -1 -2 0
v -2 -2 0
v -2 -1 0
v -1 -1 0
v -2 -2 0
v -3 -2 0
v -3 -1 0
v -2 -1 0
v -3 -2 0
v -4 -2 0
v -4 -1 0
v -3 -1 0
v -4 -2 0
v -5 -2 0
v -5 -1 0
v -4 -1 0
v -5 -2 0
v -6 -2 0
v -6 -1 0
v -5 -1 0
v -6 -2 0
v -7 -2 0
v -7 -1 0
v -6 -1 0
v -7 -2 0
v -8 -2 0
v -8 -1 0
v -7 -1 0
v -8 -2 0
v -9 -2 0
v -9 -1 0
v -8 -1 0
v -9 -2 0
v -10 -2 0
v -10 -1 0
v -9 -1 0
v -10 -2 0
v -11 -2 0
v -11 -1 0
v -10 -1 0
v -11 -2 0
v -12 -2 0
v -12 -1 0
v -11 -1 0
v -12 -2 0
v -13 -2 0
v -13 -1 0
v -12 -1 0
v -13 -2 0
v -14 -2 0
v -14 -1 0
v -13 -1 0
v -14 -2 0
v -15 -2 0
v -15 -1 0
v -14 -1 0
v -15 -2 0
v -16 -2 0
v -16 -1 0
v -15 -1 0
v -16 -2 0
v -17 -2 0
v -17 -1 0
v -16 -1 0
v -17 -2 0
v -18 -2 0
v -18 -1 0
v -17 -1 0
v -18 -2 0
v -19 -2 0
v -19 -1 0
v -18 -1 0
v -19 -2 0
v -20 -2 0
v -20 -1 0
v -19 -1 0
v -20 -2 0
v -21 -2 0
v -21 -1 0
v -20 -1 0
v -21 -2 0
v -22 -2 0
v -22 -1 0
v -21 -1 0
v -22 -2 0
v -23 -2 0
v -23 -1 0
v -22 -1 0
v -23 -2 0
v -24 -2 0
v -24 -1 0
v -23 -1 0
v -24 -2 0
v -25 -2 0
v -25 -1 0
v -24 -1 0
v 0 -3 0
v -1 -3 0
v -1 -2 0
v 0 -2 0
v -1 -3 0
v -2 -3 0
v -2 -2 0
v -1 -2 0
v -2 -3 0
v -3 -3 0
v -3 -2 0
v -2 -2 0
v -3 -3 0
v -4 -3 0
v -4 -2 0
v -3 -2 0
v -4 -3 0
v -5 -3 0
v -5 -2 0
v -4 -2 0
v -5 -3 0
v -6 -3 0
v -6 -2 0
v -5 -2 0
v -6 -3 0
v -7 -3 0
v -7 -2 0
v -6 -2 0
v -7 -3 0
v -8 -3 0
v -8 -2 0
v -7 -2 0
v -8 -3 0
v -9 -3 0
v -9 -2 0
v -8 -2 0
v -9 -3 0
v -10 -3 0
v -10 -2 0
v -9 -2 0
v -10 -3 0
v -11 -3 0
v -11 -2 0
v -10 -2 0
v -11 -3 0
v -12 -3 0
v -12 -2 0
v -11 -2 0
v -12 -3 0
v -13 -3 0
v -13 -2 0
v -12 -2 0
v -13 -3 0
v -14 -3 0
v -14 -2 0
v -13 -2 0
v -14 -3 0
v -15 -3 0
v -15 -2 0
v -14 -2 0
v -15 -3 0
v -16 -3 0
v -16 -2 0
v -15 -2 0
v -16 -3 0
v -17 -3 0
v -17 -2 0
v -16 -2 0
v -17 -3 0
v -18 -3 0
v -18 -2 0
v -17 -2 0
v -18 -3 0
v -19 -3 0
v -19 -2 0
v -18 -2 0
v -19 -3 0
v -20 -3 0
v -20 -2 0
v -19 -2 0
v -20 -3 0
v -21 -3 0
v -21 -2 0
v -20 -2 0
v -21 -3 0
v -22 -3 0
v -22 -2 0
v -21 -2 0
v -22 -3 0
v -23 -3 0
v -23 -2 0
v -22 -2 0
v -23 -3 0
v -24 -3 0
v -24 -2 0
v -23 -2 0
v -24 -3 0
v -25 -3 0
v -25 -2 0
v -24 -2 0
v 0 -4 0
v -1 -4 0
v -1 -3 0
v 0 -3 0
v -1 -4 0
v -2 -4 0
v -2 -3 0
v -1 -3 0
v -2 -4 0
v -3 -4 0
v -3 -3 0
v -2 -3 0
v -3 -4 0
v -4 -4 0
v -4 -3 0
v -3 -3 0
v -4 -4 0
v -5 -4 0
v -5 -3 0
v -4 -3 0
v -5 -4 0
v -6 -4 0
v -6 -3 0
v -5 -3 0
v -6 -4 0
v -7 -4 0
v -7 -3 0
v -6 -3 0
v -7 -4 0
v -8 -4 0
v -8 -3 0
v -7 -3 0
v -8 -4 0
v -9 -4 0
v -9 -3 0
v -8 -3 0
v -9 -4 0
v -10 -4 0
v -10 -3 0
v -9 -3 0
v -10 -4 0
v -11 -4 0
v -11 -3 0
v -10 -3 0
v -11 -4 0
v -12 -4 0
v -12 -3 0
v -11 -3 0
v -12 -4 0
v -13 -4 0
v -13 -3 0
v -12 -3 0
v -13 -4 0
v -14 -4 0
v -14 -3 0
v -13 -3 0
v -14 -4 0
v -15 -4 0
v -15 -3 0
v -14 -3 0
v -15 -4 0
v -16 -4 0
v -16 -3 0
v -15 -3 0
v -16 -4 0
v -17 -4 0
v -17 -3 0
v -16 -3 0
v -17 -4 0
v -18 -4 0
v -18 -3 0
v -17 -3 0
v -18 -4 0
v -19 -4 0
v -19 -3 0
v -18 -3 0
v -19 -4 0
v -20 -4 0
v -20 -3 0
v -19 -3 0
v -20 -4 0
v -21 -4 0
v -21 -3 0
v -20 -3 0
v -21 -4 0
v -22 -4 0
v -22 -3 0
v -21 -3 0
v -22 -4 0
v -23 -4 0
v -23 -3 0
v -22 -3 0
v -23 -4 0
v -24 -4 0
v -24 -3 0
v -23 -3 0
v -24 -4 0
v -25 -4 0
v -25 -3 0
v -24 -3 0
v 0 -5 0
v -1 -5 0
v -1 -4 0
v 0 -4 0
v -1 -5 0
v -2 -5 0
v -2 -4 0
v -1 -4 0
v -2 -5 0
v -3 -5 0
v -3 -4 0
v -2 -4 0
v -3 -5 0
v -4 -5 0
v -4 -4 0
v -3 -4 0
v -4 -5 0
v -5 -5 0
v -5 -4 0
v -4 -4 0
v -5 -5 0
v -6 -5 0
v -6 -4 0
v -5 -4 0
v -6 -5 0
v -7 -5 0
v -7 -4 0
v -6 -4 0
v -7 -5 0
v -8 -5 0
v -8 -4 0
v -7 -4 0
v -8 -5 0
v -9 -5 0
v -9 -4 0
v -8 -4 0
v -9 -5 0
v -10 -5 0
v -10 -4 0
v -9 -4 0
v -10 -5 0
v -11 -5 0
v -11 -4 0
v -10 -4 0
v -11 -5 0
v -12 -5 0
v -12 -4 0
v -11 -4 0
v -12 -5 0
v -13 -5 0
v -13 -4 0
v -12 -4 0
v -13 -5 0
v -14 -5 0
v -14 -4 0
v -13 -4 0
v -14 -5 0
v -15 -5 0
v -15 -4 0
v -14 -4 0
v -15 -5 0
v -16 -5 0
v -16 -4 0
v -15 -4 0
v -16 -5 0
v -17 -5 0
v -17 -4 0
v -16 -4 0
v -17 -5 0
v -18 -5 0
v -18 -4 0
v -17 -4 0
v -18 -5 0
v -19 -5 0
v -19 -4 0
v -18 -4 0
v -19 -5 0
v -20 -5 0
v -20 -4 0
v -19 -4 0
v -20 -5 0
v -21 -5 0
v -21 -4 0
v -20 -4 0
v -21 -5 0
v -22 -5 0
v -22 -4 0
v -21 -4 0
v -22 -5 0
v -23 -5 0
v -23 -4 0
v -22 -4 0
v -23 -5 0
v -24 -5 0
v -24 -4 0
v -23 -4 0
v -24 -5 0
v -25 -5 0
v -25 -4 0
v -24 -4 0
v 0 -6 0
v -1 -6 0
v -1 -5 0
v 0 -5 0
v -1 -6 0
v -2 -6 0
v -2 -5 0
v -1 -5 0
v -2 -6 0
v -3 -6 0
v -3 -5 0
v -2 -5 0
v -3 -6 0
v -4 -6 0
v -4 -5 0
v -3 -5 0
v -4 -6 0
v -5 -6 0
v -5 -5 0
v -4 -5 0
v -5 -6 0
v -6 -6 0
v -6 -5 0
v -5 -5 0
v -6 -6 0
v -7 -6 0
v -7 -5 0
v -6 -5 0
v -7 -6 0
v -8 -6 0
v -8 -5 0
v -7 -5 0
v -8 -6 0
v -9 -6 0
v -9 -5 0
v -8 -5 0
v -9 -6 0
v -10 -6 0
v -10 -5 0
v -9 -5 0
v -10 -6 0
v -11 -6 0
v -11 -5 0
v -10 -5 0
v -11 -6 0
v -12 -6 0
v -12 -5 0
v -11 -5 0
v -12 -6 0
v -13 -6 0
v -13 -5 0
v -12 -5 0
v -13 -6 0
v -14 -6 0
v -14 -5 0
v -13 -5 0
v -14 -6 0
v -15 -6 0
v -15 -5 0
v -14 -5 0
v -15 -6 0
v -16 -6 0
v -16 -5 0
v -15 -5 0
v -16 -6 0
v -17 -6 0
v -17 -5 0
v -16 -5 0
v -17 -6 0
v -18 -6 0
v -18 -5 0
v -17 -5 0
v -18 -6 0
v -19 -6 0
v -19 -5 0
v -18 -5 0
v -19 -6 0
v -20 -6 0
v -20 -5 0
v -19 -5 0
v -20 -6 0
v -21 -6 0
v -21 -5 0
v -20 -5 0
v -21 -6 0
v -22 -6 0
v -22 -5 0
v -21 -5 0
v -22 -6 0
v -23 -6 0
v -23 -5 0
v -22 -5 0
v -23 -6 0
v -24 -6 0
v -24 -5 0
v -23 -5 0
v -24 -6 0
v -25 -6 0
v -25 -5 0
v -24 -5 0
v 0 -7 0
v -1 -7 0
v -1 -6 0
v 0 -6 0
v -1 -7 0
v -2 -7 0
v -2 -6 0
v -1 -6 0
v -2 -7 0
v -3 -7 0
v -3 -6 0
v -2 -6 0
v -3 -7 0
v -4 -7 0
v -4 -6 0
v -3 -6 0
v -4 -7 0
v -5 -7 0
v -5 -6 0
v -4 -6 0
v -5 -7 0
v -6 -7 0
v -6 -6 0
v -5 -6 0
v -6 -7 0
v -7 -7 0
v -7 -6 0
v -6 -6 0
v -7 -7 0
v -8 -7 0
v -8 -6 0
v -7 -6 0
v -8 -7 0
v -9 -7 0
v -9 -6 0
v -8 -6 0
v -9 -7 0
v -10 -7 0
v -10 -6 0
v -9 -6 0
v -10 -7 0
v -11 -7 0
v -11 -6 0
v -10 -6 0
v -11 -7 0
v -12 -7 0
v -12 -6 0
v -11 -6 0
v -12 -7 0
v -13 -7 0
v -13 -6 0
v -12 -6 0
v -13 -7 0
v -14 -7 0
v -14 -6 0
v -13 -6 0
v -14 -7 0
v -15 -7 0
v -15 -6 0
v -14 -6 0
v -15 -7 0
v -16 -7 0
v -16 -6 0
v -15 -6 0
v -16 -7 0
v -17 -7 0
v -17 -6 0
v -16 -6 0
v -17 -7 0
v -18 -7 0
v -18 -6 0
v -17 -6 0
v -18 -7 0
v -19 -7 0
v -19 -6 0
v -18 -6 0
v -19 -7 0
v -20 -7 0
v -20 -6 0
v -19 -6 0
v -20 -7 0
v -21 -7 0
v -21 -6 0
v -20 -6 0
v -21 -7 0
v -22 -7 0
v -22 -6 0
v -21 -6 0
v -22 -7 0
v -23 -7 0
v -23 -6 0
v -22 -6 0
v -23 -7 0
v -24 -7 0
v -24 -6 0
v -23 -6 0
v -24 -7 0
v -25 -7 0
v -25 -6 0
v -24 -6 0
v 0 -8 0
v -1 -8 0
v -1 -7 0
v 0 -7 0
v -1 -8 0
v -2 -8 0
v -2 -7 0
v -1 -7 0
v -2 -8 0
v -3 -8 0
v -3 -7 0
v -2 -7 0
v -3 -8 0
v -4 -8 0
v -4 -7 0
v -3 -7 0
v -4 -8 0
v -5 -8 0
v -5 -7 0
v -4 -7 0
v -5 -8 0
v -6 -8 0
v -6 -7 0
v -5 -7 0
v -6 -8 0
v -7 -8 0
v -7 -7 0
v -6 -7 0
v -7 -8 0
v -8 -8 0
v -8 -7 0
v -7 -7 0
v -8 -8 0
v -9 -8 0
v -9 -7 0
v -8 -7 0
v -9 -8 0
v -10 -8 0
v -10 -7 0
v -9 -7 0
v -10 -8 0
v -11 -8 0
v -11 -7 0
v -10 -7 0
v -11 -8 0
v -12 -8 0
v -12 -7 0
v -11 -7 0
v -12 -8 0
v -13 -8 0
v -13 -7 0
v -12 -7 0
v -13 -8 0
v -14 -8 0
v -14 -7 0
v -13 -7 0
v -14 -8 0
v -15 -8 0
v -15 -7 0
v -14 -7 0
v -15 -8 0
v -16 -8 0
v -16 -7 0
v -15 -7 0
v -16 -8 0
v -17 -8 0
v -17 -7 0
v -16 -7 0
v -17 -8 0
v -18 -8 0
v -18 -7 0
v -17 -7 0
v -18 -8 0
v -19 -8 0
v -19 -7 0
v -18 -7 0
v -19 -8 0
v -20 -8 0
v -20 -7 0
v -19 -7 0
v -20 -8 0
v -21 -8 0
v -21 -7 0
v -20 -7 0
v -21 -8 0
v -22 -8 0
v -22 -7 0
v -21 -7 0
v -22 -8 0
v -23 -8 0
v -23 -7 0
v -22 -7 0
v -23 -8 0
v -24 -8 0
v -24 -7 0
v -23 -7 0
v -24 -8 0
v -25 -8 0
v -25 -7 0
v -24 -7 0
v 0 -9 0
v -1 -9 0
v -1 -8 0
v 0 -8 0
v -1 -9 0
v -2 -9 0
v -2 -8 0
v -1 -8 0
v -2 -9 0
v -3 -9 0
v -3 -8 0
v -2 -8 0
v -3 -9 0
v -4 -9 0
v -4 -8 0
v -3 -8 0
v -4 -9 0
v -5 -9 0
v -5 -8 0
v -4 -8 0
v -5 -9 0
v -6 -9 0
v -6 -8 0
v -5 -8 0
v -6 -9 0
v -7 -9 0
v -7 -8 0
v -6 -8 0
v -7 -9 0
v -8 -9 0
v -8 -8 0
v -7 -8 0
v -8 -9 0
v -9 -9 0
v -9 -8 0
v -8 -8 0
v -9 -9 0
v -10 -9 0
v -10 -8 0
v -9 -8 0
v -10 -9 0
v -11 -9 0
v -11 -8 0
v -10 -8 0
v -11 -9 0
v -12 -9 0
v -12 -8 0
v -11 -8 0
v -12 -9 0
v -13 -9 0
v -13 -8 0
v -12 -8 0
v -13 -9 0
v -14 -9 0
v -14 -8 0
v -13 -8 0
v -14 -9 0
v -15 -9 0
v -15 -8 0
v -14 -8 0
v -15 -9 0
v -16 -9 0
v -16 -8 0
v -15 -8 0
v -16 -9 0
v -17 -9 0
v -17 -8 0
v -16 -8 0
v -17 -9 0
v -18 -9 0
v -18 -8 0
v -17 -8 0
v -18 -9 0
v -19 -9 0
v -19 -8 0
v -18 -8 0
v -19 -9 0
v -20 -9 0
v -20 -8 0
v -19 -8 0
v -20 -9 0
v -21 -9 0
v -21 -8 0
v -20 -8 0
v -21 -9 0
v -22 -9 0
v -22 -8 0
v -21 -8 0
v -22 -9 0
v -23 -9 0
v -23 -8 0
v -22 -8 0
v -23 -9 0
v -24 -9 0
v -24 -8 0
v -23 -8 0
v -24 -9 0
v -25 -9 0
v -25 -8 0
v -24 -8 0
v 0 -10 0
v -1 -10 0
v -1 -9 0
v 0 -9 0
v -1 -10 0
v -2 -10 0
v -2 -9 0
v -1 -9 0
v -2 -10 0
v -3 -10 0
v -3 -9 0
v -2 -9 0
v -3 -10 0
v -4 -10 0
v -4 -9 0
v -3 -9 0
v -4 -10 0
v -5 -10 0
v -5 -9 0
v -4 -9 0
v -5 -10 0
v -6 -10 0
v -6 -9 0
v -5 -9 0
v -6 -10 0
v -7 -10 0
v -7 -9 0
v -6 -9 0
v -7 -10 0
v -8 -10 0
v -8 -9 0
v -7 -9 0
v -8 -10 0
v -9 -10 0
v -9 -9 0
v -8 -9 0
v -9 -10 0
v -10 -10 0
v -10 -9 0
v -9 -9 0
v -10 -10 0
v -11 -10 0
v -11 -9 0
v -10 -9 0
v -11 -10 0
v -12 -10 0
v -12 -9 0
v -11 -9 0
v -12 -10 0
v -13 -10 0
v -13 -9 0
v -12 -9 0
v -13 -10 0
v -14 -10 0
v -14 -9 0
v -13 -9 0
v -14 -10 0
v -15 -10 0
v -15 -9 0
v -14 -9 0
v -15 -10 0
v -16 -10 0
v -16 -9 0
v -15 -9 0
v -16 -10 0
v -17 -10 0
v -17 -9 0
v -16 -9 0
v -17 -10 0
v -18 -10 0
v -18 -9 0
v -17 -9 0
v -18 -10 0
v -19 -10 0
v -19 -9 0
v -18 -9 0
v -19 -10 0
v -20 -10 0
v -20 -9 0
v -19 -9 0
v -20 -10 0
v -21 -10 0
v -21 -9 0
v -20 -9 0
v -21 -10 0
v -22 -10 0
v -22 -9 0
v -21 -9 0
v -22 -10 0
v -23 -10 0
v -23 -9 0
v -22 -9 0
v -23 -10 0
v -24 -10 0
v -24 -9 0
v -23 -9 0
v -24 -10 0
v -25 -10 0
v -25 -9 0
v -24 -9 0
v 0 -11 0
v -1 -11 0
v -1 -10 0
v 0 -10 0
v -1 -11 0
v -2 -11 0
v -2 -10 0
v -1 -10 0
v -2 -11 0
v -3 -11 0
v -3 -10 0
v -2 -10 0
v -3 -11 0
v -4 -11 0
v -4 -10 0
v -3 -10 0
v -4 -11 0
v -5 -11 0
v -5 -10 0
v -4 -10 0
v -5 -11 0
v -6 -11 0
v -6 -10 0
v -5 -10 0
v -6 -11 0
v -7 -11 0
v -7 -10 0
v -6 -10 0
v -7 -11 0
v -8 -11 0
v -8 -10 0
v -7 -10 0
v -8 -11 0
v -9 -11 0
v -9 -10 0
v -8 -10 0
v -9 -11 0
v -10 -11 0
v -10 -10 0
v -9 -10 0
v -10 -11 0
v -11 -11 0
v -11 -10 0
v -10 -10 0
v -11 -11 0
v -12 -11 0
v -12 -10 0
v -11 -10 0
v -12 -11 0
v -13 -11 0
v -13 -10 0
v -12 -10 0
v -13 -11 0
v -14 -11 0
v -14 -10 0
v -13 -10 0
v -14 -11 0
v -15 -11 0
v -15 -10 0
v -14 -10 0
v -15 -11 0
v -16 -11 0
v -16 -10 0
v -15 -10 0
v -16 -11 0
v -17 -11 0
v -17 -10 0
v -16 -10 0
v -17 -11 0
v -18 -11 0
v -18 -10 0
v -17 -10 0
v -18 -11 0
v -19 -11 0
v -19 -10 0
v -18 -10 0
v -19 -11 0
v -20 -11 0
v -20 -10 0
v -19 -10 0
v -20 -11 0
v -21 -11 0
v -21 -10 0
v -20 -10 0
v -21 -11 0
v -22 -11 0
v -22 -10 0
v -21 -10 0
v -22 -11 0
v -23 -11 0
v -23 -10 0
v -22 -10 0
v -23 -11 0
v -24 -11 0
v -24 -10 0
v -23 -10 0
v -24 -11 0
v -25 -11 0
v -25 -10 0
v -24 -10 0
v 0 -12 0
v -1 -12 0
v -1 -11 0
v 0 -11 0
v -1 -12 0
v -2 -12 0
v -2 -11 0
v -1 -11 0
v -2 -12 0
v -3 -12 0
v -3 -11 0
v -2 -11 0
v -3 -12 0
v -4 -12 0
v -4 -11 0
v -3 -11 0
v -4 -12 0
v -5 -12 0
v -5 -11 0
v -4 -11 0
v -5 -12 0
v -6 -12 0
v -6 -11 0
v -5 -11 0
v -6 -12 0
v -7 -12 0
v -7 -11 0
v -6 -11 0
v -7 -12 0
v -8 -12 0
v -8 -11 0
v -7 -11 0
v -8 -12 0
v -9 -12 0
v -9 -11 0
v -8 -11 0
v -9 -12 0
v -10 -12 0
v -10 -11 0
v -9 -11 0
v -10 -12 0
v -11 -12 0
v -11 -11 0
v -10 -11 0
v -11 -12 0
v -12 -12 0
v -12 -11 0
v -11 -11 0
v -12 -12 0
v -13 -12 0
v -13 -11 0
v -12 -11 0
v -13 -12 0
v -14 -12 0
v -14 -11 0
v -13 -11 0
v -14 -12 0
v -15 -12 0
v -15 -11 0
v -14 -11 0
v -15 -12 0
v -16 -12 0
v -16 -11 0
v -15 -11 0
v -16 -12 0
v -17 -12 0
v -17 -11 0
v -16 -11 0
v -17 -12 0
v -18 -12 0
v -18 -11 0
v -17 -11 0
v -18 -12 0
v -19 -12 0
v -19 -11 0
v -18 -11 0
v -19 -12 0
v -20 -12 0
v -20 -11 0
v -19 -11 0
v -20 -12 0
v -21 -12 0
v -21 -11 0
v -20 -11 0
v -21 -12 0
v -22 -12 0
v -22 -11 0
v -21 -11 0
v -22 -12 0
v -23 -12 0
v -23 -11 0
v -22 -11 0
v -23 -12 0
v -24 -12 0
v -24 -11 0
v -23 -11 0
v -24 -12 0
v -25 -12 0
v -25 -11 0
v -24 -11 0
v 0 -13 0
v -1 -13 0
v -1 -12 0
v 0 -12 0
v -1 -13 0
v -2 -13 0
v -2 -12 0
v -1 -12 0
v -2 -13 0
v -3 -13 0
v -3 -12 0
v -2 -12 0
v -3 -13 0
v -4 -13 0
v -4 -12 0
v -3 -12 0
v -4 -13 0
v -5 -13 0
v -5 -12 0
v -4 -12 0
v -5 -13 0
v -6 -13 0
v -6 -12 0
v -5 -12 0
v -6 -13 0
v -7 -13 0
v -7 -12 0
v -6 -12 0
v -7 -13 0
v -8 -13 0
v -8 -12 0
v -7 -12 0
v -8 -13 0
v -9 -13 0
v -9 -12 0
v -8 -12 0
v -9 -13 0
v -10 -13 0
v -10 -12 0
v -9 -12 0
v -10 -13 0
v -11 -13 0
v -11 -12 0
v -10 -12 0
v -11 -13 0
v -12 -13 0
v -12 -12 0
v -11 -12 0
v -12 -13 0
v -13 -13 0
v -13 -12 0
v -12 -12 0
v -13 -13 0
v -14 -13 0
v -14 -12 0
v -13 -12 0
v -14 -13 0
v -15 -13 0
v -15 -12 0
v -14 -12 0
v -15 -13 0
v -16 -13 0
v -16 -12 0
v -15 -12 0
v -16 -13 0
v -17 -13 0
v -17 -12 0
v -16 -12 0
v -17 -13 0
v -18 -13 0
v -18 -12 0
v -17 -12 0
v -18 -13 0
v -19 -13 0
v -19 -12 0
v -18 -12 0
v -19 -13 0
v -20 -13 0
v -20 -12 0
v -19 -12 0
v -20 -13 0
v -21 -13 0
v -21 -12 0
v -20 -12 0
v -21 -13 0
v -22 -13 0
v -22 -12 0
v -21 -12 0
v -22 -13 0
v -23 -13 0
v -23 -12 0
v -22 -12 0
v -23 -13 0
v -24 -13 0
v -24 -12 0
v -23 -12 0
v -24 -13 0
v -25 -13 0
v -25 -12 0
v -24 -12 0
v 0 -14 0
v -1 -14 0
v -1 -13 0
v 0 -13 0
v -1 -14 0
v -2 -14 0
v -2 -13 0
v -1 -13 0
v -2 -14 0
v -3 -14 0
v -3 -13 0
v -2 -13 0
v -3 -14 0
v -4 -14 0
v -4 -13 0
v -3 -13 0
v -4 -14 0
v -5 -14 0
v -5 -13 0
v -4 -13 0
v -5 -14 0
v -6 -14 0
v -6 -13 0
v -5 -13 0
v -6 -14 0
v -7 -14 0
v -7 -13 0
v -6 -13 0
v -7 -14 0
v -8 -14 0
v -8 -13 0
v -7 -13 0
v -8 -14 0
v -9 -14 0
v -9 -13 0
v -8 -13 0
v -9 -14 0
v -10 -14 0
v -10 -13 0
v -9 -13 0
v -10 -14 0
v -11 -14 0
v -11 -13 0
v -10 -13 0
v -11 -14 0
v -12 -14 0
v -12 -13 0
v -11 -13 0
v -12 -14 0
v -13 -14 0
v -13 -13 0
v -12 -13 0
v -13 -14 0
v -14 -14 0
v -14 -13 0
v -13 -13 0
v -14 -14 0
v -15 -14 0
v -15 -13 0
v -14 -13 0
v -15 -14 0
v -16 -14 0
v -16 -13 0
v -15 -13 0
v -16 -14 0
v -17 -14 0
v -17 -13 0
v -16 -13 0
v -17 -14 0
v -18 -14 0
v -18 -13 0
v -17 -13 0
v -18 -14 0
v -19 -14 0
v -19 -13 0
v -18 -13 0
v -19 -14 0
v -20 -14 0
v -20 -13 0
v -19 -13 0
v -20 -14 0
v -21 -14 0
v -21 -13 0
v -20 -13 0
v -21 -14 0
v -22 -14 0
v -22 -13 0
v -21 -13 0
v -22 -14 0
v -23 -14 0
v -23 -13 0
v -22 -13 0
v -23 -14 0
v -24 -14 0
v -24 -13 0
v -23 -13 0
v -24 -14 0
v -25 -14 0
v -25 -13 0
v -24 -13 0
v 0 -15 0
v -1 -15 0
v -1 -14 0
v 0 -14 0
v -1 -15 0
v -2 -15 0
v -2 -14 0
v -1 -14 0
v -2 -15 0
v -3 -15 0
v -3 -14 0
v -2 -14 0
v -3 -15 0
v -4 -15 0
v -4 -14 0
v -3 -14 0
v -4 -15 0
v -5 -15 0
v -5 -14 0
v -4 -14 0
v -5 -15 0
v -6 -15 0
v -6 -14 0
v -5 -14 0
v -6 -15 0
v -7 -15 0
v -7 -14 0
v -6 -14 0
v -7 -15 0
v -8 -15 0
v -8 -14 0
v -7 -14 0
v -8 -15 0
v -9 -15 0
v -9 -14 0
v -8 -14 0
v -9 -15 0
v -10 -15 0
v -10 -14 0
v -9 -14 0
v -10 -15 0
v -11 -15 0
v -11 -14 0
v -10 -14 0
v -11 -15 0
v -12 -15 0
v -12 -14 0
v -11 -14 0
v -12 -15 0
v -13 -15 0
v -13 -14 0
v -12 -14 0
v -13 -15 0
v -14 -15 0
v -14 -14 0
v -13 -14 0
v -14 -15 0
v -15 -15 0
v -15 -14 0
v -14 -14 0
v -15 -15 0
v -16 -15 0
v -16 -14 0
v -15 -14 0
v -16 -15 0
v -17 -15 0
v -17 -14 0
v -16 -14 0
v -17 -15 0
v -18 -15 0
v -18 -14 0
v -17 -14 0
v -18 -15 0
v -19 -15 0
v -19 -14 0
v -18 -14 0
v -19 -15 0
v -20 -15 0
v -20 -14 0
v -19 -14 0
v -20 -15 0
v -21 -15 0
v -21 -14 0
v -20 -14 0
v -21 -15 0
v -22 -15 0
v -22 -14 0
v -21 -14 0
v -22 -15 0
v -23 -15 0
v -23 -14 0
v -22 -14 0
v -23 -15 0
v -24 -15 0
v -24 -14 0
v -23 -14 0
v -24 -15 0
v -25 -15 0
v -25 -14 0
v -24 -14 0
v 0 -16 0
v -1 -16 0
v -1 -15 0
v 0 -15 0
v -1 -16 0
v -2 -16 0
v -2 -15 0
v -1 -15 0
v -2 -16 0
v -3 -16 0
v -3 -15 0
v -2 -15 0
v -3 -16 0
v -4 -16 0
v -4 -15 0
v -3 -15 0
v -4 -16 0
v -5 -16 0
v -5 -15 0
v -4 -15 0
v -5 -16 0
v -6 -16 0
v -6 -15 0
v -5 -15 0
v -6 -16 0
v -7 -16 0
v -7 -15 0
v -6 -15 0
v -7 -16 0
v -8 -16 0
v -8 -15 0
v -7 -15 0
v -8 -16 0
v -9 -16 0
v -9 -15 0
v -8 -15 0
v -9 -16 0
v -10 -16 0
v -10 -15 0
v -9 -15 0
v -10 -16 0
v -11 -16 0
v -11 -15 0
v -10 -15 0
v -11 -16 0
v -12 -16 0
v -12 -15 0
v -11 -15 0
v -12 -16 0
v -13 -16 0
v -13 -15 0
v -12 -15 0
v -13 -16 0
v -14 -16 0
v -14 -15 0
v -13 -15 0
v -14 -16 0
v -15 -16 0
v -15 -15 0
v -14 -15 0
v -15 -16 0
v -16 -16 0
v -16 -15 0
v -15 -15 0
v -16 -16 0
v -17 -16 0
v -17 -15 0
v -16 -15 0
v -17 -16 0
v -18 -16 0
v -18 -15 0
v -17 -15 0
v -18 -16 0
v -19 -16 0
v -19 -15 0
v -18 -15 0
v -19 -16 0
v -20 -16 0
v -20 -15 0
v -19 -15 0
v -20 -16 0
v -21 -16 0
v -21 -15 0
v -20 -15 0
v -21 -16 0
v -22 -16 0
v -22 -15 0
v -21 -15 0
v -22 -16 0
v -23 -16 0
v -23 -15 0
v -22 -15 0
v -23 -16 0
v -24 -16 0
v -24 -15 0
v -23 -15 0
v -24 -16 0
v -25 -16 0
v -25 -15 0
v -24 -15 0
v 0 -17 0
v -1 -17 0
v -1 -16 0
v 0 -16 0
v -1 -17 0
v -2 -17 0
v -2 -16 0
v -1 -16 0
v -2 -17 0
v -3 -17 0
v -3 -16 0
v -2 -16 0
v -3 -17 0
v -4 -17 0
v -4 -16 0
v -3 -16 0
v -4 -17 0
v -5 -17 0
v -5 -16 0
v -4 -16 0
v -5 -17 0
v -6 -17 0
v -6 -16 0
v -5 -16 0
v -6 -17 0
v -7 -17 0
v -7 -16 0
v -6 -16 0
v -7 -17 0
v -8 -17 0
v -8 -16 0
v -7 -16 0
v -8 -17 0
v -9 -17 0
v -9 -16 0
v -8 -16 0
v -9 -17 0
v -10 -17 0
v -10 -16 0
v -9 -16 0
v -10 -17 0
v -11 -17 0
v -11 -16 0
v -10 -16 0
v -11 -17 0
v -12 -17 0
v -12 -16 0
v -11 -16 0
v -12 -17 0
v -13 -17 0
v -13 -16 0
v -12 -16 0
v -13 -17 0
v -14 -17 0
v -14 -16 0
v -13 -16 0
v -14 -17 0
v -15 -17 0
v -15 -16 0
v -14 -16 0
v -15 -17 0
v -16 -17 0
v -16 -16 0
v -15 -16 0
v -16 -17 0
v -17 -17 0
v -17 -16 0
v -16 -16 0
v -17 -17 0
v -18 -17 0
v -18 -16 0
v -17 -16 0
v -18 -17 0
v -19 -17 0
v -19 -16 0
v -18 -16 0
v -19 -17 0
v -20 -17 0
v -20 -16 0
v -19 -16 0
v -20 -17 0
v -21 -17 0
v -21 -16 0
v -20 -16 0
v -21 -17 0
v -22 -17 0
v -22 -16 0
v -21 -16 0
v -22 -17 0
v -23 -17 0
v -23 -16 0
v -22 -16 0
v -23 -17 0
v -24 -17 0
v -24 -16 0
v -23 -16 0
v -24 -17 0
v -25 -17 0
v -25 -16 0
v -24 -16 0
v 0 -18 0
v -1 -18 0
v -1 -17 0
v 0 -17 0
v -1 -18 0
v -2 -18 0
v -2 -17 0
v -1 -17 0
v -2 -18 0
v -3 -18 0
v -3 -17 0
v -2 -17 0
v -3 -18 0
v -4 -18 0
v -4 -17 0
v -3 -17 0
v -4 -18 0
v -5 -18 0
v -5 -17 0
v -4 -17 0
v -5 -18 0
v -6 -18 0
v -6 -17 0
v -5 -17 0
v -6 -18 0
v -7 -18 0
v -7 -17 0
v -6 -17 0
v -7 -18 0
v -8 -18 0
v -8 -17 0
v -7 -17 0
v -8 -18 0
v -9 -18 0
v -9 -17 0
v -8 -17 0
v -9 -18 0
v -10 -18 0
v -10 -17 0
v -9 -17 0
v -10 -18 0
v -11 -18 0
v -11 -17 0
v -10 -17 0
v -11 -18 0
v -12 -18 0
v -12 -17 0
v -11 -17 0
v -12 -18 0
v -13 -18 0
v -13 -17 0
v -12 -17 0
v -13 -18 0
v -14 -18 0
v -14 -17 0
v -13 -17 0
v -14 -18 0
v -15 -18 0
v -15 -17 0
v -14 -17 0
v -15 -18 0
v -16 -18 0
v -16 -17 0
v -15 -17 0
v -16 -18 0
v -17 -18 0
v -17 -17 0
v -16 -17 0
v -17 -18 0
v -18 -18 0
v -18 -17 0
v -17 -17 0
v -18 -18 0
v -19 -18 0
v -19 -17 0
v -18 -17 0
v -19 -18 0
v -20 -18 0
v -20 -17 0
v -19 -17 0
v -20 -18 0
v -21 -18 0
v -21 -17 0
v -20 -17 0
v -21 -18 0
v -22 -18 0
v -22 -17 0
v -21 -17 0
v -22 -18 0
v -23 -18 0
v -23 -17 0
v -22 -17 0
v -23 -18 0
v -24 -18 0
v -24 -17 0
v -23 -17 0
v -24 -18 0
v -25 -18 0
v -25 -17 0
v -24 -17 0
v 0 -19 0
v -1 -19 0
v -1 -18 0
v 0 -18 0
v -1 -19 0
v -2 -19 0
v -2 -18 0
v -1 -18 0
v -2 -19 0
v -3 -19 0
v -3 -18 0
v -2 -18 0
v -3 -19 0
v -4 -19 0
v -4 -18 0
v -3 -18 0
v -4 -19 0
v -5 -19 0
v -5 -18 0
v -4 -18 0
v -5 -19 0
v -6 -19 0
v -6 -18 0
v -5 -18 0
v -6 -19 0
v -7 -19 0
v -7 -18 0
v -6 -18 0
v -7 -19 0
v -8 -19 0
v -8 -18 0
v -7 -18 0
v -8 -19 0
v -9 -19 0
v -9 -18 0
v -8 -18 0
v -9 -19 0
v -10 -19 0
v -10 -18 0
v -9 -18 0
v -10 -19 0
v -11 -19 0
v -11 -18 0
v -10 -18 0
v -11 -19 0
v -12 -19 0
v -12 -18 0
v -11 -18 0
v -12 -19 0
v -13 -19 0
v -13 -18 0
v -12 -18 0
v -13 -19 0
v -14 -19 0
v -14 -18 0
v -13 -18 0
v -14 -19 0
v -15 -19 0
v -15 -18 0
v -14 -18 0
v -15 -19 0
v -16 -19 0
v -16 -18 0
v -15 -18 0
v -16 -19 0
v -17 -19 0
v -17 -18 0
v -16 -18 0
v -17 -19 0
v -18 -19 0
v -18 -18 0
v -17 -18 0
v -18 -19 0
v -19 -19 0
v -19 -18 0
v -18 -18 0
v -19 -19 0
v -20 -19 0
v -20 -18 0
v -19 -18 0
v -20 -19 0
v -21 -19 0
v -21 -18 0
v -20 -18 0
v -21 -19 0
v -22 -19 0
v -22 -18 0
v -21 -18 0
v -22 -19 0
v -23 -19 0
v -23 -18 0
v -22 -18 0
v -23 -19 0
v -24 -19 0
v -24 -18 0
v -23 -18 0
v -24 -19 0
v -25 -19 0
v -25 -18 0
v -24 -18 0
v 0 -20 0
v -1 -20 0
v -1 -19 0
v 0 -19 0
v -1 -20 0
v -2 -20 0
v -2 -19 0
v -1 -19 0
v -2 -20 0
v -3 -20 0
v -3 -19 0
v -2 -19 0
v -3 -20 0
v -4 -20 0
v -4 -19 0
v -3 -19 0
v -4 -20 0
v -5 -20 0
v -5 -19 0
v -4 -19 0
v -5 -20 0
v -6 -20 0
v -6 -19 0
v -5 -19 0
v -6 -20 0
v -7 -20 0
v -7 -19 0
v -6 -19 0
v -7 -20 0
v -8 -20 0
v -8 -19 0
v -7 -19 0
v -8 -20 0
v -9 -20 0
v -9 -19 0
v -8 -19 0
v -9 -20 0
v -10 -20 0
v -10 -19 0
v -9 -19 0
v -10 -20 0
v -11 -20 0
v -11 -19 0
v -10 -19 0
v -11 -20 0
v -12 -20 0
v -12 -19 0
v -11 -19 0
v -12 -20 0
v -13 -20 0
v -13 -19 0
v -12 -19 0
v -13 -20 0
v -14 -20 0
v -14 -19 0
v -13 -19 0
v -14 -20 0
v -15 -20 0
v -15 -19 0
v -14 -19 0
v -15 -20 0
v -16 -20 0
v -16 -19 0
v -15 -19 0
v -16 -20 0
v -17 -20 0
v -17 -19 0
v -16 -19 0
v -17 -20 0
v -18 -20 0
v -18 -19 0
v -17 -19 0
v -18 -20 0
v -19 -20 0
v -19 -19 0
v -18 -19 0
v -19 -20 0
v -20 -20 0
v -20 -19 0
v -19 -19 0
v -20 -20 0
v -21 -20 0
v -21 -19 0
v -20 -19 0
v -21 -20 0
v -22 -20 0
v -22 -19 0
v -21 -19 0
v -22 -20 0
v -23 -20 0
v -23 -19 0
v -22 -19 0
v -23 -20 0
v -24 -20 0
v -24 -19 0
v -23 -19 0
v -24 -20 0
v -25 -20 0
v -25 -19 0
v -24 -19 0
v 0 -21 0
v -1 -21 0
v -1 -20 0
v 0 -20 0
v -1 -21 0
v -2 -21 0
v -2 -20 0
v -1 -20 0
v -2 -21 0
v -3 -21 0
v -3 -20 0
v -2 -20 0
v -3 -21 0
v -4 -21 0
v -4 -20 0
v -3 -20 0
v -4 -21 0
v -5 -21 0
v -5 -20 0
v -4 -20 0
v -5 -21 0
v -6 -21 0
v -6 -20 0
v -5 -20 0
v -6 -21 0
v -7 -21 0
v -7 -20 0
v -6 -20 0
v -7 -21 0
v -8 -21 0
v -8 -20 0
v -7 -20 0
v -8 -21 0
v -9 -21 0
v -9 -20 0
v -8 -20 0
v -9 -21 0
v -10 -21 0
v -10 -20 0
v -9 -20 0
v -10 -21 0
v -11 -21 0
v -11 -20 0
v -10 -20 0
v -11 -21 0
v -12 -21 0
v -12 -20 0
v -11 -20 0
v -12 -21 0
v -13 -21 0
v -13 -20 0
v -12 -20 0
v -13 -21 0
v -14 -21 0
v -14 -20 0
v -13 -20 0
v -14 -21 0
v -15 -21 0
v -15 -20 0
v -14 -20 0
v -15 -21 0
v -16 -21 0
v -16 -20 0
v -15 -20 0
v -16 -21 0
v -17 -21 0
v -17 -20 0
v -16 -20 0
v -17 -21 0
v -18 -21 0
v -18 -20 0
v -17 -20 0
v -18 -21 0
v -19 -21 0
v -19 -20 0
v -18 -20 0
v -19 -21 0
v -20 -21 0
v -20 -20 0
v -19 -20 0
v -20 -21 0
v -21 -21 0
v -21 -20 0
v -20 -20 0
v -21 -21 0
v -22 -21 0
v -22 -20 0
v -21 -20 0
v -22 -21 0
v -23 -21 0
v -23 -20 0
v -22 -20 0
v -23 -21 0
v -24 -21 0
v -24 -20 0
v -23 -20 0
v -24 -21 0
v -25 -21 0
v -25 -20 0
v -24 -20 0
v 0 -22 0
v -1 -22 0
v -1 -21 0
v 0 -21 0
v -1 -22 0
v -2 -22 0
v -2 -21 0
v -1 -21 0
v -2 -22 0
v -3 -22 0
v -3 -21 0
v -2 -21 0
v -3 -22 0
v -4 -22 0
v -4 -21 0
v -3 -21 0
v -4 -22 0
v -5 -22 0
v -5 -21 0
v -4 -21 0
v -5 -22 0
v -6 -22 0
v -6 -21 0
v -5 -21 0
v -6 -22 0
v -7 -22 0
v -7 -21 0
v -6 -21 0
v -7 -22 0
v -8 -22 0
v -8 -21 0
v -7 -21 0
v -8 -22 0
v -9 -22 0
v -9 -21 0
v -8 -21 0
v -9 -22 0
v -10 -22 0
v -10 -21 0
v -9 -21 0
v -10 -22 0
v -11 -22 0
v -11 -21 0
v -10 -21 0
v -11 -22 0
v -12 -22 0
v -12 -21 0
v -11 -21 0
v -12 -22 0
v -13 -22 0
v -13 -21 0
v -12 -21 0
v -13 -22 0
v -14 -22 0
v -14 -21 0
v -13 -21 0
v -14 -22 0
v -15 -22 0
v -15 -21 0
v -14 -21 0
v -15 -22 0
v -16 -22 0
v -16 -21 0
v -15 -21 0
v -16 -22 0
v -17 -22 0
v -17 -21 0
v -16 -21 0
v -17 -22 0
v -18 -22 0
v -18 -21 0
v -17 -21 0
v -18 -22 0
v -19 -22 0
v -19 -21 0
v -18 -21 0
v -19 -22 0
v -20 -22 0
v -20 -21 0
v -19 -21 0
v -20 -22 0
v -21 -22 0
v -21 -21 0
v -20 -21 0
v -21 -22 0
v -22 -22 0
v -22 -21 0
v -21 -21 0
v -22 -22 0
v -23 -22 0
v -23 -21 0
v -22 -21 0
v -23 -22 0
v -24 -22 0
v -24 -21 0
v -23 -21 0
v -24 -22 0
v -25 -22 0
v -25 -21 0
v -24 -21 0
v 0 -23 0
v -1 -23 0
v -1 -22 0
v 0 -22 0
v -1 -23 0
v -2 -23 0
v -2 -22 0
v -1 -22 0
v -2 -23 0
v -3 -23 0
v -3 -22 0
v -2 -22 0
v -3 -23 0
v -4 -23 0
v -4 -22 0
v -3 -22 0
v -4 -23 0
v -5 -23 0
v -5 -22 0
v -4 -22 0
v -5 -23 0
v -6 -23 0
v -6 -22 0
v -5 -22 0
v -6 -23 0
v -7 -23 0
v -7 -22 0
v -6 -22 0
v -7 -23 0
v -8 -23 0
v -8 -22 0
v -7 -22 0
v -8 -23 0
v -9 -23 0
v -9 -22 0
v -8 -22 0
v -9 -23 0
v -10 -23 0
v -10 -22 0
v -9 -22 0
v -10 -23 0
v -11 -23 0
v -11 -22 0
v -10 -22 0
v -11 -23 0
v -12 -23 0
v -12 -22 0
v -11 -22 0
v -12 -23 0
v -13 -23 0
v -13 -22 0
v -12 -22 0
v -13 -23 0
v -14 -23 0
v -14 -22 0
v -13 -22 0
v -14 -23 0
v -15 -23 0
v -15 -22 0
v -14 -22 0
v -15 -23 0
v -16 -23 0
v -16 -22 0
v -15 -22 0
v -16 -23 0
v -17 -23 0
v -17 -22 0
v -16 -22 0
v -17 -23 0
v -18 -23 0
v -18 -22 0
v -17 -22 0
v -18 -23 0
v -19 -23 0
v -19 -22 0
v -18 -22 0
v -19 -23 0
v -20 -23 0
v -20 -22 0
v -19 -22 0
v -20 -23 0
v -21 -23 0
v -21 -22 0
v -20 -22 0
v -21 -23 0
v -22 -23 0
v -22 -22 0
v -21 -22 0
v -22 -23 0
v -23 -23 0
v -23 -22 0
v -22 -22 0
v -23 -23 0
v -24 -23 0
v -24 -22 0
v -23 -22 0
v -24 -23 0
v -25 -23 0
v -25 -22 0
v -24 -22 0
v 0 -24 0
v -1 -24 0
v -1 -23 0
v 0 -23 0
v -1 -24 0
v -2 -24 0
v -2 -23 0
v -1 -23 0
v -2 -24 0
v -3 -24 0
v -3 -23 0
v -2 -23 0
v -3 -24 0
v -4 -24 0
v -4 -23 0
v -3 -23 0
v -4 -24 0
v -5 -24 0
v -5 -23 0
v -4 -23 0
v -5 -24 0
v -6 -24 0
v -6 -23 0
v -5 -23 0
v -6 -24 0
v -7 -24 0
v -7 -23 0
v -6 -23 0
v -7 -24 0
v -8 -24 0
v -8 -23 0
v -7 -23 0
v -8 -24 0
v -9 -24 0
v -9 -23 0
v -8 -23 0
v -9 -24 0
v -10 -24 0
v -10 -23 0
v -9 -23 0
v -10 -24 0
v -11 -24 0
v -11 -23 0
v -10 -23 0
v -11 -24 0
v -12 -24 0
v -12 -23 0
v -11 -23 0
v -12 -24 0
v -13 -24 0
v -13 -23 0
v -12 -23 0
v -13 -24 0
v -14 -24 0
v -14 -23 0
v -13 -23 0
v -14 -24 0
v -15 -24 0
v -15 -23 0
v -14 -23 0
v -15 -24 0
v -16 -24 0
v -16 -23 0
v -15 -23 0
v -16 -24 0
v -17 -24 0
v -17 -23 0
v -16 -23 0
v -17 -24 0
v -18 -24 0
v -18 -23 0
v -17 -23 0
v -18 -24 0
v -19 -24 0
v -19 -23 0
v -18 -23 0
v -19 -24 0
v -20 -24 0
v -20 -23 0
v -19 -23 0
v -20 -24 0
v -21 -24 0
v -21 -23 0
v -20 -23 0
v -21 -24 0
v -22 -24 0
v -22 -23 0
v -21 -23 0
v -22 -24 0
v -23 -24 0
v -23 -23 0
v -22 -23 0
v -23 -24 0
v -24 -24 0
v -24 -23 0
v -23 -23 0
v -24 -24 0
v -25 -24 0
v -25 -23 0
v -24 -23 0
v 0 -25 0
v -1 -25 0
v -1 -24 0
v 0 -24 0
v -1 -25 0
v -2 -25 0
v -2 -24 0
v -1 -24 0
v -2 -25 0
v -3 -25 0
v -3 -24 0
v -2 -24 0
v -3 -25 0
v -4 -25 0
v -4 -24 0
v -3 -24 0
v -4 -25 0
v -5 -25 0
v -5 -24 0
v -4 -24 0
v -5 -25 0
v -6 -25 0
v -6 -24 0
v -5 -24 0
v -6 -25 0
v -7 -25 0
v -7 -24 0
v -6 -24 0
v -7 -25 0
v -8 -25 0
v -8 -24 0
v -7 -24 0
v -8 -25 0
v -9 -25 0
v -9 -24 0
v -8 -24 0
v -9 -25 0
v -10 -25 0
v -10 -24 0
v -9 -24 0
v -10 -25 0
v -11 -25 0
v -11 -24 0
v -10 -24 0
v -11 -25 0
v -12 -25 0
v -12 -24 0
v -11 -24 0
v -12 -25 0
v -13 -25 0
v -13 -24 0
v -12 -24 0
v -13 -25 0
v -14 -25 0
v -14 -24 0
v -13 -24 0
v -14 -25 0
v -15 -25 0
v -15 -24 0
v -14 -24 0
v -15 -25 0
v -16 -25 0
v -16 -24 0
v -15 -24 0
v -16 -25 0
v -17 -25 0
v -17 -24 0
v -16 -24 0
v -17 -25 0
v -18 -25 0
v -18 -24 0
v -17 -24 0
v -18 -25 0
v -19 -25 0
v -19 -24 0
v -18 -24 0
v -19 -25 0
v -20 -25 0
v -20 -24 0
v -19 -24 0
v -20 -25 0
v -21 -25 0
v -21 -24 0
v -20 -24 0
v -21 -25 0
v -22 -25 0
v -22 -24 0
v -21 -24 0
v -22 -25 0
v -23 -25 0
v -23 -24 0
v -22 -24 0
v -23 -25 0
v -24 -25 0
v -24 -24 0
v -23 -24 0
v -24 -25 0
v -25 -25 0
v -25 -24 0
v -24 -24 0

# Texture cooridinates (Count = 16)
vt 0 0.9166667
vt 0.025 0.9166667
vt 0.025 0.9444444
vt 0 0.9444444
vt 0 0.9722222
vt 0.025 0.9722222
vt 0.025 1
vt 0 1
vt 0.05 0.9722222
vt 0.05 1
vt 0.05 0.9444444
vt 0.075 0.9722222
vt 0.075 1
vt 0.075 0.9444444
vt 0.05 0.9166667
vt 0.075 0.9166667

# Normal
vn 0 0 -1

# Mesh description
g Hutan1_mesh_0001

# Faces
f 1/1/1 2/2/1 3/3/1 4/4/1
f 5/1/1 6/2/1 7/3/1 8/4/1
f 9/1/1 10/2/1 11/3/1 12/4/1
f 13/1/1 14/2/1 15/3/1 16/4/1
f 17/1/1 18/2/1 19/3/1 20/4/1
f 21/1/1 22/2/1 23/3/1 24/4/1
f 25/1/1 26/2/1 27/3/1 28/4/1
f 29/1/1 30/2/1 31/3/1 32/4/1
f 33/1/1 34/2/1 35/3/1 36/4/1
f 37/1/1 38/2/1 39/3/1 40/4/1
f 41/1/1 42/2/1 43/3/1 44/4/1
f 45/1/1 46/2/1 47/3/1 48/4/1
f 49/1/1 50/2/1 51/3/1 52/4/1
f 53/1/1 54/2/1 55/3/1 56/4/1
f 57/1/1 58/2/1 59/3/1 60/4/1
f 61/1/1 62/2/1 63/3/1 64/4/1
f 65/1/1 66/2/1 67/3/1 68/4/1
f 69/1/1 70/2/1 71/3/1 72/4/1
f 73/1/1 74/2/1 75/3/1 76/4/1
f 77/1/1 78/2/1 79/3/1 80/4/1
f 81/1/1 82/2/1 83/3/1 84/4/1
f 85/1/1 86/2/1 87/3/1 88/4/1
f 89/1/1 90/2/1 91/3/1 92/4/1
f 93/1/1 94/2/1 95/3/1 96/4/1
f 97/1/1 98/2/1 99/3/1 100/4/1
f 101/1/1 102/2/1 103/3/1 104/4/1
f 105/1/1 106/2/1 107/3/1 108/4/1
f 109/1/1 110/2/1 111/3/1 112/4/1
f 113/1/1 114/2/1 115/3/1 116/4/1
f 117/1/1 118/2/1 119/3/1 120/4/1
f 121/1/1 122/2/1 123/3/1 124/4/1
f 125/1/1 126/2/1 127/3/1 128/4/1
f 129/1/1 130/2/1 131/3/1 132/4/1
f 133/1/1 134/2/1 135/3/1 136/4/1
f 137/5/1 138/6/1 139/7/1 140/8/1
f 141/6/1 142/9/1 143/10/1 144/7/1
f 145/1/1 146/2/1 147/3/1 148/4/1
f 149/1/1 150/2/1 151/3/1 152/4/1
f 153/1/1 154/2/1 155/3/1 156/4/1
f 157/1/1 158/2/1 159/3/1 160/4/1
f 161/1/1 162/2/1 163/3/1 164/4/1
f 165/1/1 166/2/1 167/3/1 168/4/1
f 169/1/1 170/2/1 171/3/1 172/4/1
f 173/1/1 174/2/1 175/3/1 176/4/1
f 177/6/1 178/9/1 179/10/1 180/7/1
f 181/6/1 182/9/1 183/10/1 184/7/1
f 185/1/1 186/2/1 187/3/1 188/4/1
f 189/1/1 190/2/1 191/3/1 192/4/1
f 193/1/1 194/2/1 195/3/1 196/4/1
f 197/1/1 198/2/1 199/3/1 200/4/1
f 201/1/1 202/2/1 203/3/1 204/4/1
f 205/1/1 206/2/1 207/3/1 208/4/1
f 209/1/1 210/2/1 211/3/1 212/4/1
f 213/1/1 214/2/1 215/3/1 216/4/1
f 217/1/1 218/2/1 219/3/1 220/4/1
f 221/1/1 222/2/1 223/3/1 224/4/1
f 225/1/1 226/2/1 227/3/1 228/4/1
f 229/1/1 230/2/1 231/3/1 232/4/1
f 233/1/1 234/2/1 235/3/1 236/4/1
f 237/4/1 238/3/1 239/6/1 240/5/1
f 241/3/1 242/11/1 243/9/1 244/6/1
f 245/6/1 246/9/1 247/10/1 248/7/1
f 249/9/1 250/12/1 251/13/1 252/10/1
f 253/1/1 254/2/1 255/3/1 256/4/1
f 257/1/1 258/2/1 259/3/1 260/4/1
f 261/1/1 262/2/1 263/3/1 264/4/1
f 265/1/1 266/2/1 267/3/1 268/4/1
f 269/1/1 270/2/1 271/3/1 272/4/1
f 273/1/1 274/2/1 275/3/1 276/4/1
f 277/3/1 278/11/1 279/9/1 280/6/1
f 281/3/1 282/11/1 283/9/1 284/6/1
f 285/1/1 286/2/1 287/3/1 288/4/1
f 289/1/1 290/2/1 291/3/1 292/4/1
f 293/1/1 294/2/1 295/3/1 296/4/1
f 297/1/1 298/2/1 299/3/1 300/4/1
f 301/1/1 302/2/1 303/3/1 304/4/1
f 305/1/1 306/2/1 307/3/1 308/4/1
f 309/1/1 310/2/1 311/3/1 312/4/1
f 313/1/1 314/2/1 315/3/1 316/4/1
f 317/1/1 318/2/1 319/3/1 320/4/1
f 321/1/1 322/2/1 323/3/1 324/4/1
f 325/1/1 326/2/1 327/3/1 328/4/1
f 329/1/1 330/2/1 331/3/1 332/4/1
f 333/4/1 334/3/1 335/6/1 336/5/1
f 337/3/1 338/11/1 339/9/1 340/6/1
f 341/3/1 342/11/1 343/9/1 344/6/1
f 345/3/1 346/11/1 347/9/1 348/6/1
f 349/11/1 350/14/1 351/12/1 352/9/1
f 353/1/1 354/2/1 355/3/1 356/4/1
f 357/1/1 358/2/1 359/3/1 360/4/1
f 361/1/1 362/2/1 363/3/1 364/4/1
f 365/1/1 366/2/1 367/3/1 368/4/1
f 369/6/1 370/9/1 371/10/1 372/7/1
f 373/6/1 374/9/1 375/10/1 376/7/1
f 377/3/1 378/11/1 379/9/1 380/6/1
f 381/3/1 382/11/1 383/9/1 384/6/1
f 385/1/1 386/2/1 387/3/1 388/4/1
f 389/1/1 390/2/1 391/3/1 392/4/1
f 393/1/1 394/2/1 395/3/1 396/4/1
f 397/1/1 398/2/1 399/3/1 400/4/1
f 401/1/1 402/2/1 403/3/1 404/4/1
f 405/1/1 406/2/1 407/3/1 408/4/1
f 409/1/1 410/2/1 411/3/1 412/4/1
f 413/1/1 414/2/1 415/3/1 416/4/1
f 417/1/1 418/2/1 419/3/1 420/4/1
f 421/1/1 422/2/1 423/3/1 424/4/1
f 425/1/1 426/2/1 427/3/1 428/4/1
f 429/1/1 430/2/1 431/3/1 432/4/1
f 433/4/1 434/3/1 435/6/1 436/5/1
f 437/3/1 438/11/1 439/9/1 440/6/1
f 441/3/1 442/11/1 443/9/1 444/6/1
f 445/11/1 446/14/1 447/12/1 448/9/1
f 449/1/1 450/2/1 451/3/1 452/4/1
f 453/1/1 454/2/1 455/3/1 456/4/1
f 457/6/1 458/9/1 459/10/1 460/7/1
f 461/6/1 462/9/1 463/10/1 464/7/1
f 465/6/1 466/9/1 467/10/1 468/7/1
f 469/3/1 470/11/1 471/9/1 472/6/1
f 473/3/1 474/11/1 475/9/1 476/6/1
f 477/3/1 478/11/1 479/9/1 480/6/1
f 481/2/1 482/15/1 483/11/1 484/3/1
f 485/1/1 486/2/1 487/3/1 488/4/1
f 489/1/1 490/2/1 491/3/1 492/4/1
f 493/1/1 494/2/1 495/3/1 496/4/1
f 497/1/1 498/2/1 499/3/1 500/4/1
f 501/1/1 502/2/1 503/3/1 504/4/1
f 505/1/1 506/2/1 507/3/1 508/4/1
f 509/1/1 510/2/1 511/3/1 512/4/1
f 513/5/1 514/6/1 515/7/1 516/8/1
f 517/6/1 518/9/1 519/10/1 520/7/1
f 521/9/1 522/12/1 523/13/1 524/10/1
f 525/1/1 526/2/1 527/3/1 528/4/1
f 529/1/1 530/2/1 531/3/1 532/4/1
f 533/1/1 534/2/1 535/3/1 536/4/1
f 537/2/1 538/15/1 539/11/1 540/3/1
f 541/2/1 542/15/1 543/11/1 544/3/1
f 545/15/1 546/16/1 547/14/1 548/11/1
f 549/1/1 550/2/1 551/3/1 552/4/1
f 553/1/1 554/2/1 555/3/1 556/4/1
f 557/3/1 558/11/1 559/9/1 560/6/1
f 561/3/1 562/11/1 563/9/1 564/6/1
f 565/3/1 566/11/1 567/9/1 568/6/1
f 569/3/1 570/11/1 571/9/1 572/6/1
f 573/2/1 574/15/1 575/11/1 576/3/1
f 577/2/1 578/15/1 579/11/1 580/3/1
f 581/1/1 582/2/1 583/3/1 584/4/1
f 585/1/1 586/2/1 587/3/1 588/4/1
f 589/1/1 590/2/1 591/3/1 592/4/1
f 593/1/1 594/2/1 595/3/1 596/4/1
f 597/1/1 598/2/1 599/3/1 600/4/1
f 601/1/1 602/2/1 603/3/1 604/4/1
f 605/1/1 606/2/1 607/3/1 608/4/1
f 609/1/1 610/2/1 611/3/1 612/4/1
f 613/4/1 614/3/1 615/6/1 616/5/1
f 617/3/1 618/11/1 619/9/1 620/6/1
f 621/11/1 622/14/1 623/12/1 624/9/1
f 625/9/1 626/12/1 627/13/1 628/10/1
f 629/1/1 630/2/1 631/3/1 632/4/1
f 633/1/1 634/2/1 635/3/1 636/4/1
f 637/1/1 638/2/1 639/3/1 640/4/1
f 641/5/1 642/6/1 643/7/1 644/8/1
f 645/6/1 646/9/1 647/10/1 648/7/1
f 649/3/1 650/11/1 651/9/1 652/6/1
f 653/3/1 654/11/1 655/9/1 656/6/1
f 657/3/1 658/11/1 659/9/1 660/6/1
f 661/2/1 662/15/1 663/11/1 664/3/1
f 665/2/1 666/15/1 667/11/1 668/3/1
f 669/2/1 670/15/1 671/11/1 672/3/1
f 673/1/1 674/2/1 675/3/1 676/4/1
f 677/1/1 678/2/1 679/3/1 680/4/1
f 681/1/1 682/2/1 683/3/1 684/4/1
f 685/1/1 686/2/1 687/3/1 688/4/1
f 689/1/1 690/2/1 691/3/1 692/4/1
f 693/1/1 694/2/1 695/3/1 696/4/1
f 697/1/1 698/2/1 699/3/1 700/4/1
f 701/1/1 702/2/1 703/3/1 704/4/1
f 705/1/1 706/2/1 707/3/1 708/4/1
f 709/4/1 710/3/1 711/6/1 712/5/1
f 713/3/1 714/11/1 715/9/1 716/6/1
f 717/3/1 718/11/1 719/9/1 720/6/1
f 721/3/1 722/11/1 723/9/1 724/6/1
f 725/11/1 726/14/1 727/12/1 728/9/1
f 729/6/1 730/9/1 731/10/1 732/7/1
f 733/9/1 734/12/1 735/13/1 736/10/1
f 737/5/1 738/6/1 739/7/1 740/8/1
f 741/6/1 742/9/1 743/10/1 744/7/1
f 745/3/1 746/11/1 747/9/1 748/6/1
f 749/3/1 750/11/1 751/9/1 752/6/1
f 753/3/1 754/11/1 755/9/1 756/6/1
f 757/2/1 758/15/1 759/11/1 760/3/1
f 761/1/1 762/2/1 763/3/1 764/4/1
f 765/1/1 766/2/1 767/3/1 768/4/1
f 769/1/1 770/2/1 771/3/1 772/4/1
f 773/1/1 774/2/1 775/3/1 776/4/1
f 777/1/1 778/2/1 779/3/1 780/4/1
f 781/1/1 782/2/1 783/3/1 784/4/1
f 785/1/1 786/2/1 787/3/1 788/4/1
f 789/1/1 790/2/1 791/3/1 792/4/1
f 793/1/1 794/2/1 795/3/1 796/4/1
f 797/1/1 798/2/1 799/3/1 800/4/1
f 801/5/1 802/6/1 803/7/1 804/8/1
f 805/6/1 806/9/1 807/10/1 808/7/1
f 809/6/1 810/9/1 811/10/1 812/7/1
f 813/3/1 814/11/1 815/9/1 816/6/1
f 817/3/1 818/11/1 819/9/1 820/6/1
f 821/3/1 822/11/1 823/9/1 824/6/1
f 825/3/1 826/11/1 827/9/1 828/6/1
f 829/3/1 830/11/1 831/9/1 832/6/1
f 833/11/1 834/14/1 835/12/1 836/9/1
f 837/4/1 838/3/1 839/6/1 840/5/1
f 841/3/1 842/11/1 843/9/1 844/6/1
f 845/3/1 846/11/1 847/9/1 848/6/1
f 849/2/1 850/15/1 851/11/1 852/3/1
f 853/2/1 854/15/1 855/11/1 856/3/1
f 857/1/1 858/2/1 859/3/1 860/4/1
f 861/1/1 862/2/1 863/3/1 864/4/1
f 865/1/1 866/2/1 867/3/1 868/4/1
f 869/1/1 870/2/1 871/3/1 872/4/1
f 873/5/1 874/6/1 875/7/1 876/8/1
f 877/6/1 878/9/1 879/10/1 880/7/1
f 881/6/1 882/9/1 883/10/1 884/7/1
f 885/6/1 886/9/1 887/10/1 888/7/1
f 889/6/1 890/9/1 891/10/1 892/7/1
f 893/9/1 894/12/1 895/13/1 896/10/1
f 897/1/1 898/2/1 899/3/1 900/4/1
f 901/4/1 902/3/1 903/6/1 904/5/1
f 905/3/1 906/11/1 907/9/1 908/6/1
f 909/3/1 910/11/1 911/9/1 912/6/1
f 913/3/1 914/11/1 915/9/1 916/6/1
f 917/3/1 918/11/1 919/9/1 920/6/1
f 921/3/1 922/11/1 923/9/1 924/6/1
f 925/3/1 926/11/1 927/9/1 928/6/1
f 929/3/1 930/11/1 931/9/1 932/6/1
f 933/3/1 934/11/1 935/9/1 936/6/1
f 937/3/1 938/11/1 939/9/1 940/6/1
f 941/3/1 942/11/1 943/9/1 944/6/1
f 945/9/1 946/12/1 947/13/1 948/10/1
f 949/1/1 950/2/1 951/3/1 952/4/1
f 953/1/1 954/2/1 955/3/1 956/4/1
f 957/1/1 958/2/1 959/3/1 960/4/1
f 961/1/1 962/2/1 963/3/1 964/4/1
f 965/5/1 966/6/1 967/7/1 968/8/1
f 969/6/1 970/9/1 971/10/1 972/7/1
f 973/6/1 974/9/1 975/10/1 976/7/1
f 977/3/1 978/11/1 979/9/1 980/6/1
f 981/3/1 982/11/1 983/9/1 984/6/1
f 985/3/1 986/11/1 987/9/1 988/6/1
f 989/3/1 990/11/1 991/9/1 992/6/1
f 993/11/1 994/14/1 995/12/1 996/9/1
f 997/1/1 998/2/1 999/3/1 1000/4/1
f 1001/3/1 1002/11/1 1003/9/1 1004/6/1
f 1005/3/1 1006/11/1 1007/9/1 1008/6/1
f 1009/3/1 1010/11/1 1011/9/1 1012/6/1
f 1013/3/1 1014/11/1 1015/9/1 1016/6/1
f 1017/3/1 1018/11/1 1019/9/1 1020/6/1
f 1021/3/1 1022/11/1 1023/9/1 1024/6/1
f 1025/3/1 1026/11/1 1027/9/1 1028/6/1
f 1029/3/1 1030/11/1 1031/9/1 1032/6/1
f 1033/3/1 1034/11/1 1035/9/1 1036/6/1
f 1037/3/1 1038/11/1 1039/9/1 1040/6/1
f 1041/3/1 1042/11/1 1043/9/1 1044/6/1
f 1045/11/1 1046/14/1 1047/12/1 1048/9/1
f 1049/1/1 1050/2/1 1051/3/1 1052/4/1
f 1053/1/1 1054/2/1 1055/3/1 1056/4/1
f 1057/1/1 1058/2/1 1059/3/1 1060/4/1
f 1061/1/1 1062/2/1 1063/3/1 1064/4/1
f 1065/4/1 1066/3/1 1067/6/1 1068/5/1
f 1069/3/1 1070/11/1 1071/9/1 1072/6/1
f 1073/3/1 1074/11/1 1075/9/1 1076/6/1
f 1077/3/1 1078/11/1 1079/9/1 1080/6/1
f 1081/3/1 1082/11/1 1083/9/1 1084/6/1
f 1085/3/1 1086/11/1 1087/9/1 1088/6/1
f 1089/3/1 1090/11/1 1091/9/1 1092/6/1
f 1093/11/1 1094/14/1 1095/12/1 1096/9/1
f 1097/1/1 1098/2/1 1099/3/1 1100/4/1
f 1101/3/1 1102/11/1 1103/9/1 1104/6/1
f 1105/3/1 1106/11/1 1107/9/1 1108/6/1
f 1109/3/1 1110/11/1 1111/9/1 1112/6/1
f 1113/3/1 1114/11/1 1115/9/1 1116/6/1
f 1117/3/1 1118/11/1 1119/9/1 1120/6/1
f 1121/2/1 1122/15/1 1123/11/1 1124/3/1
f 1125/2/1 1126/15/1 1127/11/1 1128/3/1
f 1129/3/1 1130/11/1 1131/9/1 1132/6/1
f 1133/3/1 1134/11/1 1135/9/1 1136/6/1
f 1137/3/1 1138/11/1 1139/9/1 1140/6/1
f 1141/3/1 1142/11/1 1143/9/1 1144/6/1
f 1145/11/1 1146/14/1 1147/12/1 1148/9/1
f 1149/1/1 1150/2/1 1151/3/1 1152/4/1
f 1153/1/1 1154/2/1 1155/3/1 1156/4/1
f 1157/1/1 1158/2/1 1159/3/1 1160/4/1
f 1161/1/1 1162/2/1 1163/3/1 1164/4/1
f 1165/1/1 1166/2/1 1167/3/1 1168/4/1
f 1169/2/1 1170/15/1 1171/11/1 1172/3/1
f 1173/2/1 1174/15/1 1175/11/1 1176/3/1
f 1177/3/1 1178/11/1 1179/9/1 1180/6/1
f 1181/3/1 1182/11/1 1183/9/1 1184/6/1
f 1185/3/1 1186/11/1 1187/9/1 1188/6/1
f 1189/3/1 1190/11/1 1191/9/1 1192/6/1
f 1193/11/1 1194/14/1 1195/12/1 1196/9/1
f 1197/1/1 1198/2/1 1199/3/1 1200/4/1
f 1201/3/1 1202/11/1 1203/9/1 1204/6/1
f 1205/3/1 1206/11/1 1207/9/1 1208/6/1
f 1209/3/1 1210/11/1 1211/9/1 1212/6/1
f 1213/3/1 1214/11/1 1215/9/1 1216/6/1
f 1217/2/1 1218/15/1 1219/11/1 1220/3/1
f 1221/1/1 1222/2/1 1223/3/1 1224/4/1
f 1225/1/1 1226/2/1 1227/3/1 1228/4/1
f 1229/2/1 1230/15/1 1231/11/1 1232/3/1
f 1233/3/1 1234/11/1 1235/9/1 1236/6/1
f 1237/3/1 1238/11/1 1239/9/1 1240/6/1
f 1241/3/1 1242/11/1 1243/9/1 1244/6/1
f 1245/11/1 1246/14/1 1247/12/1 1248/9/1
f 1249/1/1 1250/2/1 1251/3/1 1252/4/1
f 1253/1/1 1254/2/1 1255/3/1 1256/4/1
f 1257/1/1 1258/2/1 1259/3/1 1260/4/1
f 1261/1/1 1262/2/1 1263/3/1 1264/4/1
f 1265/1/1 1266/2/1 1267/3/1 1268/4/1
f 1269/1/1 1270/2/1 1271/3/1 1272/4/1
f 1273/1/1 1274/2/1 1275/3/1 1276/4/1
f 1277/2/1 1278/15/1 1279/11/1 1280/3/1
f 1281/2/1 1282/15/1 1283/11/1 1284/3/1
f 1285/2/1 1286/15/1 1287/11/1 1288/3/1
f 1289/2/1 1290/15/1 1291/11/1 1292/3/1
f 1293/15/1 1294/16/1 1295/14/1 1296/11/1
f 1297/1/1 1298/2/1 1299/3/1 1300/4/1
f 1301/3/1 1302/11/1 1303/9/1 1304/6/1
f 1305/3/1 1306/11/1 1307/9/1 1308/6/1
f 1309/3/1 1310/11/1 1311/9/1 1312/6/1
f 1313/2/1 1314/15/1 1315/11/1 1316/3/1
f 1317/1/1 1318/2/1 1319/3/1 1320/4/1
f 1321/1/1 1322/2/1 1323/3/1 1324/4/1
f 1325/1/1 1326/2/1 1327/3/1 1328/4/1
f 1329/1/1 1330/2/1 1331/3/1 1332/4/1
f 1333/3/1 1334/11/1 1335/9/1 1336/6/1
f 1337/3/1 1338/11/1 1339/9/1 1340/6/1
f 1341/3/1 1342/11/1 1343/9/1 1344/6/1
f 1345/11/1 1346/14/1 1347/12/1 1348/9/1
f 1349/6/1 1350/9/1 1351/10/1 1352/7/1
f 1353/9/1 1354/12/1 1355/13/1 1356/10/1
f 1357/1/1 1358/2/1 1359/3/1 1360/4/1
f 1361/1/1 1362/2/1 1363/3/1 1364/4/1
f 1365/1/1 1366/2/1 1367/3/1 1368/4/1
f 1369/1/1 1370/2/1 1371/3/1 1372/4/1
f 1373/1/1 1374/2/1 1375/3/1 1376/4/1
f 1377/1/1 1378/2/1 1379/3/1 1380/4/1
f 1381/1/1 1382/2/1 1383/3/1 1384/4/1
f 1385/1/1 1386/2/1 1387/3/1 1388/4/1
f 1389/1/1 1390/2/1 1391/3/1 1392/4/1
f 1393/1/1 1394/2/1 1395/3/1 1396/4/1
f 1397/1/1 1398/2/1 1399/3/1 1400/4/1
f 1401/3/1 1402/11/1 1403/9/1 1404/6/1
f 1405/3/1 1406/11/1 1407/9/1 1408/6/1
f 1409/2/1 1410/15/1 1411/11/1 1412/3/1
f 1413/1/1 1414/2/1 1415/3/1 1416/4/1
f 1417/1/1 1418/2/1 1419/3/1 1420/4/1
f 1421/1/1 1422/2/1 1423/3/1 1424/4/1
f 1425/1/1 1426/2/1 1427/3/1 1428/4/1
f 1429/1/1 1430/2/1 1431/3/1 1432/4/1
f 1433/2/1 1434/15/1 1435/11/1 1436/3/1
f 1437/3/1 1438/11/1 1439/9/1 1440/6/1
f 1441/3/1 1442/11/1 1443/9/1 1444/6/1
f 1445/3/1 1446/11/1 1447/9/1 1448/6/1
f 1449/3/1 1450/11/1 1451/9/1 1452/6/1
f 1453/11/1 1454/14/1 1455/12/1 1456/9/1
f 1457/1/1 1458/2/1 1459/3/1 1460/4/1
f 1461/1/1 1462/2/1 1463/3/1 1464/4/1
f 1465/1/1 1466/2/1 1467/3/1 1468/4/1
f 1469/1/1 1470/2/1 1471/3/1 1472/4/1
f 1473/1/1 1474/2/1 1475/3/1 1476/4/1
f 1477/1/1 1478/2/1 1479/3/1 1480/4/1
f 1481/1/1 1482/2/1 1483/3/1 1484/4/1
f 1485/1/1 1486/2/1 1487/3/1 1488/4/1
f 1489/1/1 1490/2/1 1491/3/1 1492/4/1
f 1493/1/1 1494/2/1 1495/3/1 1496/4/1
f 1497/1/1 1498/2/1 1499/3/1 1500/4/1
f 1501/3/1 1502/11/1 1503/9/1 1504/6/1
f 1505/2/1 1506/15/1 1507/11/1 1508/3/1
f 1509/1/1 1510/2/1 1511/3/1 1512/4/1
f 1513/1/1 1514/2/1 1515/3/1 1516/4/1
f 1517/1/1 1518/2/1 1519/3/1 1520/4/1
f 1521/1/1 1522/2/1 1523/3/1 1524/4/1
f 1525/1/1 1526/2/1 1527/3/1 1528/4/1
f 1529/1/1 1530/2/1 1531/3/1 1532/4/1
f 1533/1/1 1534/2/1 1535/3/1 1536/4/1
f 1537/2/1 1538/15/1 1539/11/1 1540/3/1
f 1541/3/1 1542/11/1 1543/9/1 1544/6/1
f 1545/3/1 1546/11/1 1547/9/1 1548/6/1
f 1549/3/1 1550/11/1 1551/9/1 1552/6/1
f 1553/3/1 1554/11/1 1555/9/1 1556/6/1
f 1557/11/1 1558/14/1 1559/12/1 1560/9/1
f 1561/6/1 1562/9/1 1563/10/1 1564/7/1
f 1565/1/1 1566/2/1 1567/3/1 1568/4/1
f 1569/1/1 1570/2/1 1571/3/1 1572/4/1
f 1573/1/1 1574/2/1 1575/3/1 1576/4/1
f 1577/1/1 1578/2/1 1579/3/1 1580/4/1
f 1581/1/1 1582/2/1 1583/3/1 1584/4/1
f 1585/1/1 1586/2/1 1587/3/1 1588/4/1
f 1589/1/1 1590/2/1 1591/3/1 1592/4/1
f 1593/1/1 1594/2/1 1595/3/1 1596/4/1
f 1597/1/1 1598/2/1 1599/3/1 1600/4/1
f 1601/2/1 1602/15/1 1603/11/1 1604/3/1
f 1605/1/1 1606/2/1 1607/3/1 1608/4/1
f 1609/1/1 1610/2/1 1611/3/1 1612/4/1
f 1613/1/1 1614/2/1 1615/3/1 1616/4/1
f 1617/1/1 1618/2/1 1619/3/1 1620/4/1
f 1621/1/1 1622/2/1 1623/3/1 1624/4/1
f 1625/1/1 1626/2/1 1627/3/1 1628/4/1
f 1629/1/1 1630/2/1 1631/3/1 1632/4/1
f 1633/1/1 1634/2/1 1635/3/1 1636/4/1
f 1637/1/1 1638/2/1 1639/3/1 1640/4/1
f 1641/3/1 1642/11/1 1643/9/1 1644/6/1
f 1645/3/1 1646/11/1 1647/9/1 1648/6/1
f 1649/3/1 1650/11/1 1651/9/1 1652/6/1
f 1653/3/1 1654/11/1 1655/9/1 1656/6/1
f 1657/3/1 1658/11/1 1659/9/1 1660/6/1
f 1661/3/1 1662/11/1 1663/9/1 1664/6/1
f 1665/11/1 1666/14/1 1667/12/1 1668/9/1
f 1669/6/1 1670/9/1 1671/10/1 1672/7/1
f 1673/6/1 1674/9/1 1675/10/1 1676/7/1
f 1677/1/1 1678/2/1 1679/3/1 1680/4/1
f 1681/1/1 1682/2/1 1683/3/1 1684/4/1
f 1685/1/1 1686/2/1 1687/3/1 1688/4/1
f 1689/1/1 1690/2/1 1691/3/1 1692/4/1
f 1693/1/1 1694/2/1 1695/3/1 1696/4/1
f 1697/1/1 1698/2/1 1699/3/1 1700/4/1
f 1701/1/1 1702/2/1 1703/3/1 1704/4/1
f 1705/1/1 1706/2/1 1707/3/1 1708/4/1
f 1709/1/1 1710/2/1 1711/3/1 1712/4/1
f 1713/1/1 1714/2/1 1715/3/1 1716/4/1
f 1717/1/1 1718/2/1 1719/3/1 1720/4/1
f 1721/1/1 1722/2/1 1723/3/1 1724/4/1
f 1725/1/1 1726/2/1 1727/3/1 1728/4/1
f 1729/1/1 1730/2/1 1731/3/1 1732/4/1
f 1733/1/1 1734/2/1 1735/3/1 1736/4/1
f 1737/6/1 1738/9/1 1739/10/1 1740/7/1
f 1741/3/1 1742/11/1 1743/9/1 1744/6/1
f 1745/3/1 1746/11/1 1747/9/1 1748/6/1
f 1749/2/1 1750/15/1 1751/11/1 1752/3/1
f 1753/2/1 1754/15/1 1755/11/1 1756/3/1
f 1757/3/1 1758/11/1 1759/9/1 1760/6/1
f 1761/3/1 1762/11/1 1763/9/1 1764/6/1
f 1765/3/1 1766/11/1 1767/9/1 1768/6/1
f 1769/3/1 1770/11/1 1771/9/1 1772/6/1
f 1773/3/1 1774/11/1 1775/9/1 1776/6/1
f 1777/11/1 1778/14/1 1779/12/1 1780/9/1
f 1781/6/1 1782/9/1 1783/10/1 1784/7/1
f 1785/1/1 1786/2/1 1787/3/1 1788/4/1
f 1789/1/1 1790/2/1 1791/3/1 1792/4/1
f 1793/1/1 1794/2/1 1795/3/1 1796/4/1
f 1797/1/1 1798/2/1 1799/3/1 1800/4/1
f 1801/1/1 1802/2/1 1803/3/1 1804/4/1
f 1805/1/1 1806/2/1 1807/3/1 1808/4/1
f 1809/1/1 1810/2/1 1811/3/1 1812/4/1
f 1813/1/1 1814/2/1 1815/3/1 1816/4/1
f 1817/6/1 1818/9/1 1819/10/1 1820/7/1
f 1821/6/1 1822/9/1 1823/10/1 1824/7/1
f 1825/1/1 1826/2/1 1827/3/1 1828/4/1
f 1829/1/1 1830/2/1 1831/3/1 1832/4/1
f 1833/6/1 1834/9/1 1835/10/1 1836/7/1
f 1837/3/1 1838/11/1 1839/9/1 1840/6/1
f 1841/3/1 1842/11/1 1843/9/1 1844/6/1
f 1845/3/1 1846/11/1 1847/9/1 1848/6/1
f 1849/1/1 1850/2/1 1851/3/1 1852/4/1
f 1853/1/1 1854/2/1 1855/3/1 1856/4/1
f 1857/2/1 1858/15/1 1859/11/1 1860/3/1
f 1861/2/1 1862/15/1 1863/11/1 1864/3/1
f 1865/3/1 1866/11/1 1867/9/1 1868/6/1
f 1869/3/1 1870/11/1 1871/9/1 1872/6/1
f 1873/3/1 1874/11/1 1875/9/1 1876/6/1
f 1877/3/1 1878/11/1 1879/9/1 1880/6/1
f 1881/3/1 1882/11/1 1883/9/1 1884/6/1
f 1885/6/1 1886/9/1 1887/10/1 1888/7/1
f 1889/1/1 1890/2/1 1891/3/1 1892/4/1
f 1893/1/1 1894/2/1 1895/3/1 1896/4/1
f 1897/1/1 1898/2/1 1899/3/1 1900/4/1
f 1901/1/1 1902/2/1 1903/3/1 1904/4/1
f 1905/1/1 1906/2/1 1907/3/1 1908/4/1
f 1909/5/1 1910/6/1 1911/7/1 1912/8/1
f 1913/6/1 1914/9/1 1915/10/1 1916/7/1
f 1917/3/1 1918/11/1 1919/9/1 1920/6/1
f 1921/3/1 1922/11/1 1923/9/1 1924/6/1
f 1925/6/1 1926/9/1 1927/10/1 1928/7/1
f 1929/6/1 1930/9/1 1931/10/1 1932/7/1
f 1933/3/1 1934/11/1 1935/9/1 1936/6/1
f 1937/3/1 1938/11/1 1939/9/1 1940/6/1
f 1941/3/1 1942/11/1 1943/9/1 1944/6/1
f 1945/3/1 1946/11/1 1947/9/1 1948/6/1
f 1949/1/1 1950/2/1 1951/3/1 1952/4/1
f 1953/1/1 1954/2/1 1955/3/1 1956/4/1
f 1957/1/1 1958/2/1 1959/3/1 1960/4/1
f 1961/1/1 1962/2/1 1963/3/1 1964/4/1
f 1965/2/1 1966/15/1 1967/11/1 1968/3/1
f 1969/2/1 1970/15/1 1971/11/1 1972/3/1
f 1973/3/1 1974/11/1 1975/9/1 1976/6/1
f 1977/3/1 1978/11/1 1979/9/1 1980/6/1
f 1981/3/1 1982/11/1 1983/9/1 1984/6/1
f 1985/3/1 1986/11/1 1987/9/1 1988/6/1
f 1989/11/1 1990/14/1 1991/12/1 1992/9/1
f 1993/1/1 1994/2/1 1995/3/1 1996/4/1
f 1997/1/1 1998/2/1 1999/3/1 2000/4/1
f 2001/1/1 2002/2/1 2003/3/1 2004/4/1
f 2005/1/1 2006/2/1 2007/3/1 2008/4/1
f 2009/4/1 2010/3/1 2011/6/1 2012/5/1
f 2013/3/1 2014/11/1 2015/9/1 2016/6/1
f 2017/3/1 2018/11/1 2019/9/1 2020/6/1
f 2021/3/1 2022/11/1 2023/9/1 2024/6/1
f 2025/3/1 2026/11/1 2027/9/1 2028/6/1
f 2029/3/1 2030/11/1 2031/9/1 2032/6/1
f 2033/3/1 2034/11/1 2035/9/1 2036/6/1
f 2037/3/1 2038/11/1 2039/9/1 2040/6/1
f 2041/2/1 2042/15/1 2043/11/1 2044/3/1
f 2045/2/1 2046/15/1 2047/11/1 2048/3/1
f 2049/1/1 2050/2/1 2051/3/1 2052/4/1
f 2053/1/1 2054/2/1 2055/3/1 2056/4/1
f 2057/1/1 2058/2/1 2059/3/1 2060/4/1
f 2061/1/1 2062/2/1 2063/3/1 2064/4/1
f 2065/1/1 2066/2/1 2067/3/1 2068/4/1
f 2069/1/1 2070/2/1 2071/3/1 2072/4/1
f 2073/2/1 2074/15/1 2075/11/1 2076/3/1
f 2077/3/1 2078/11/1 2079/9/1 2080/6/1
f 2081/3/1 2082/11/1 2083/9/1 2084/6/1
f 2085/3/1 2086/11/1 2087/9/1 2088/6/1
f 2089/11/1 2090/14/1 2091/12/1 2092/9/1
f 2093/1/1 2094/2/1 2095/3/1 2096/4/1
f 2097/1/1 2098/2/1 2099/3/1 2100/4/1
f 2101/1/1 2102/2/1 2103/3/1 2104/4/1
f 2105/1/1 2106/2/1 2107/3/1 2108/4/1
f 2109/4/1 2110/3/1 2111/6/1 2112/5/1
f 2113/3/1 2114/11/1 2115/9/1 2116/6/1
f 2117/3/1 2118/11/1 2119/9/1 2120/6/1
f 2121/3/1 2122/11/1 2123/9/1 2124/6/1
f 2125/3/1 2126/11/1 2127/9/1 2128/6/1
f 2129/3/1 2130/11/1 2131/9/1 2132/6/1
f 2133/3/1 2134/11/1 2135/9/1 2136/6/1
f 2137/2/1 2138/15/1 2139/11/1 2140/3/1
f 2141/1/1 2142/2/1 2143/3/1 2144/4/1
f 2145/1/1 2146/2/1 2147/3/1 2148/4/1
f 2149/1/1 2150/2/1 2151/3/1 2152/4/1
f 2153/1/1 2154/2/1 2155/3/1 2156/4/1
f 2157/1/1 2158/2/1 2159/3/1 2160/4/1
f 2161/1/1 2162/2/1 2163/3/1 2164/4/1
f 2165/1/1 2166/2/1 2167/3/1 2168/4/1
f 2169/1/1 2170/2/1 2171/3/1 2172/4/1
f 2173/1/1 2174/2/1 2175/3/1 2176/4/1
f 2177/4/1 2178/3/1 2179/6/1 2180/5/1
f 2181/3/1 2182/11/1 2183/9/1 2184/6/1
f 2185/3/1 2186/11/1 2187/9/1 2188/6/1
f 2189/11/1 2190/14/1 2191/12/1 2192/9/1
f 2193/1/1 2194/2/1 2195/3/1 2196/4/1
f 2197/1/1 2198/2/1 2199/3/1 2200/4/1
f 2201/1/1 2202/2/1 2203/3/1 2204/4/1
f 2205/1/1 2206/2/1 2207/3/1 2208/4/1
f 2209/1/1 2210/2/1 2211/3/1 2212/4/1
f 2213/2/1 2214/15/1 2215/11/1 2216/3/1
f 2217/2/1 2218/15/1 2219/11/1 2220/3/1
f 2221/3/1 2222/11/1 2223/9/1 2224/6/1
f 2225/3/1 2226/11/1 2227/9/1 2228/6/1
f 2229/3/1 2230/11/1 2231/9/1 2232/6/1
f 2233/2/1 2234/15/1 2235/11/1 2236/3/1
f 2237/1/1 2238/2/1 2239/3/1 2240/4/1
f 2241/1/1 2242/2/1 2243/3/1 2244/4/1
f 2245/1/1 2246/2/1 2247/3/1 2248/4/1
f 2249/1/1 2250/2/1 2251/3/1 2252/4/1
f 2253/1/1 2254/2/1 2255/3/1 2256/4/1
f 2257/1/1 2258/2/1 2259/3/1 2260/4/1
f 2261/1/1 2262/2/1 2263/3/1 2264/4/1
f 2265/1/1 2266/2/1 2267/3/1 2268/4/1
f 2269/1/1 2270/2/1 2271/3/1 2272/4/1
f 2273/1/1 2274/2/1 2275/3/1 2276/4/1
f 2277/1/1 2278/2/1 2279/3/1 2280/4/1
f 2281/4/1 2282/3/1 2283/6/1 2284/5/1
f 2285/3/1 2286/11/1 2287/9/1 2288/6/1
f 2289/11/1 2290/14/1 2291/12/1 2292/9/1
f 2293/1/1 2294/2/1 2295/3/1 2296/4/1
f 2297/1/1 2298/2/1 2299/3/1 2300/4/1
f 2301/1/1 2302/2/1 2303/3/1 2304/4/1
f 2305/1/1 2306/2/1 2307/3/1 2308/4/1
f 2309/1/1 2310/2/1 2311/3/1 2312/4/1
f 2313/1/1 2314/2/1 2315/3/1 2316/4/1
f 2317/1/1 2318/2/1 2319/3/1 2320/4/1
f 2321/2/1 2322/15/1 2323/11/1 2324/3/1
f 2325/2/1 2326/15/1 2327/11/1 2328/3/1
f 2329/2/1 2330/15/1 2331/11/1 2332/3/1
f 2333/1/1 2334/2/1 2335/3/1 2336/4/1
f 2337/1/1 2338/2/1 2339/3/1 2340/4/1
f 2341/1/1 2342/2/1 2343/3/1 2344/4/1
f 2345/1/1 2346/2/1 2347/3/1 2348/4/1
f 2349/1/1 2350/2/1 2351/3/1 2352/4/1
f 2353/1/1 2354/2/1 2355/3/1 2356/4/1
f 2357/1/1 2358/2/1 2359/3/1 2360/4/1
f 2361/1/1 2362/2/1 2363/3/1 2364/4/1
f 2365/1/1 2366/2/1 2367/3/1 2368/4/1
f 2369/1/1 2370/2/1 2371/3/1 2372/4/1
f 2373/1/1 2374/2/1 2375/3/1 2376/4/1
f 2377/1/1 2378/2/1 2379/3/1 2380/4/1
f 2381/1/1 2382/2/1 2383/3/1 2384/4/1
f 2385/2/1 2386/15/1 2387/11/1 2388/3/1
f 2389/1/1 2390/2/1 2391/3/1 2392/4/1
f 2393/1/1 2394/2/1 2395/3/1 2396/4/1
f 2397/1/1 2398/2/1 2399/3/1 2400/4/1
f 2401/1/1 2402/2/1 2403/3/1 2404/4/1
f 2405/1/1 2406/2/1 2407/3/1 2408/4/1
f 2409/1/1 2410/2/1 2411/3/1 2412/4/1
f 2413/1/1 2414/2/1 2415/3/1 2416/4/1
f 2417/1/1 2418/2/1 2419/3/1 2420/4/1
f 2421/1/1 2422/2/1 2423/3/1 2424/4/1
f 2425/1/1 2426/2/1 2427/3/1 2428/4/1
f 2429/1/1 2430/2/1 2431/3/1 2432/4/1
f 2433/1/1 2434/2/1 2435/3/1 2436/4/1
f 2437/1/1 2438/2/1 2439/3/1 2440/4/1
f 2441/1/1 2442/2/1 2443/3/1 2444/4/1
f 2445/1/1 2446/2/1 2447/3/1 2448/4/1
f 2449/1/1 2450/2/1 2451/3/1 2452/4/1
f 2453/1/1 2454/2/1 2455/3/1 2456/4/1
f 2457/1/1 2458/2/1 2459/3/1 2460/4/1
f 2461/1/1 2462/2/1 2463/3/1 2464/4/1
f 2465/1/1 2466/2/1 2467/3/1 2468/4/1
f 2469/1/1 2470/2/1 2471/3/1 2472/4/1
f 2473/1/1 2474/2/1 2475/3/1 2476/4/1
f 2477/1/1 2478/2/1 2479/3/1 2480/4/1
f 2481/1/1 2482/2/1 2483/3/1 2484/4/1
f 2485/1/1 2486/2/1 2487/3/1 2488/4/1
f 2489/1/1 2490/2/1 2491/3/1 2492/4/1
f 2493/1/1 2494/2/1 2495/3/1 2496/4/1
f 2497/1/1 2498/2/1 2499/3/1 2500/4/1

